%YAML 1.1
%TAG !u! tag:unity3d.com,2011:
--- !u!114 &11400000
MonoBehaviour:
  m_ObjectHideFlags: 0
  m_CorrespondingSourceObject: {fileID: 0}
  m_PrefabInstance: {fileID: 0}
  m_PrefabAsset: {fileID: 0}
  m_GameObject: {fileID: 0}
  m_Enabled: 1
  m_EditorHideFlags: 0
  m_Script: {fileID: 11500000, guid: 8b7b0ee2e7a4de24e80a1eb21b48dc89, type: 3}
  m_Name: Level_5
  m_EditorClassIdentifier: 
  tubePoints:
  - _type: 0
    position: {x: 0, y: 0, z: 0}
    color: {r: 0, g: 0, b: 0, a: 0}
    normal: {x: 0, y: 1, z: 0}
    size: 1
    tangent: {x: 0, y: 0, z: 0}
    tangent2: {x: 0, y: 0, z: 0}
  - _type: 0
    position: {x: 50, y: 14, z: 14}
    color: {r: 0, g: 0, b: 0, a: 0}
    normal: {x: 0, y: 1, z: 0}
    size: 1
    tangent: {x: 0, y: 0, z: 0}
    tangent2: {x: 0, y: 0, z: 0}
  - _type: 0
    position: {x: 100, y: 15, z: 15}
    color: {r: 0, g: 0, b: 0, a: 0}
    normal: {x: 0, y: 1, z: 0}
    size: 1
    tangent: {x: 0, y: 0, z: 0}
    tangent2: {x: 0, y: 0, z: 0}
  - _type: 0
    position: {x: 150, y: 34, z: 34}
    color: {r: 0, g: 0, b: 0, a: 0}
    normal: {x: 0, y: 1, z: 0}
    size: 1
    tangent: {x: 0, y: 0, z: 0}
    tangent2: {x: 0, y: 0, z: 0}
  - _type: 0
    position: {x: 200, y: 36, z: 36}
    color: {r: 0, g: 0, b: 0, a: 0}
    normal: {x: 0, y: 1, z: 0}
    size: 1
    tangent: {x: 0, y: 0, z: 0}
    tangent2: {x: 0, y: 0, z: 0}
  - _type: 0
    position: {x: 250, y: 46, z: 46}
    color: {r: 0, g: 0, b: 0, a: 0}
    normal: {x: 0, y: 1, z: 0}
    size: 1
    tangent: {x: 0, y: 0, z: 0}
    tangent2: {x: 0, y: 0, z: 0}
  - _type: 0
    position: {x: 300, y: 28, z: 28}
    color: {r: 0, g: 0, b: 0, a: 0}
    normal: {x: 0, y: 1, z: 0}
    size: 1
    tangent: {x: 0, y: 0, z: 0}
    tangent2: {x: 0, y: 0, z: 0}
  - _type: 0
    position: {x: 350, y: 18, z: 18}
    color: {r: 0, g: 0, b: 0, a: 0}
    normal: {x: 0, y: 1, z: 0}
    size: 1
    tangent: {x: 0, y: 0, z: 0}
    tangent2: {x: 0, y: 0, z: 0}
  - _type: 0
    position: {x: 400, y: 17, z: 17}
    color: {r: 0, g: 0, b: 0, a: 0}
    normal: {x: 0, y: 1, z: 0}
    size: 1
    tangent: {x: 0, y: 0, z: 0}
    tangent2: {x: 0, y: 0, z: 0}
  - _type: 0
    position: {x: 450, y: 7, z: 7}
    color: {r: 0, g: 0, b: 0, a: 0}
    normal: {x: 0, y: 1, z: 0}
    size: 1
    tangent: {x: 0, y: 0, z: 0}
    tangent2: {x: 0, y: 0, z: 0}
  - _type: 0
    position: {x: 500, y: -9, z: -9}
    color: {r: 0, g: 0, b: 0, a: 0}
    normal: {x: 0, y: 1, z: 0}
    size: 1
    tangent: {x: 0, y: 0, z: 0}
    tangent2: {x: 0, y: 0, z: 0}
  - _type: 0
    position: {x: 550, y: 9, z: 9}
    color: {r: 0, g: 0, b: 0, a: 0}
    normal: {x: 0, y: 1, z: 0}
    size: 1
    tangent: {x: 0, y: 0, z: 0}
    tangent2: {x: 0, y: 0, z: 0}
  - _type: 0
    position: {x: 600, y: 16, z: 16}
    color: {r: 0, g: 0, b: 0, a: 0}
    normal: {x: 0, y: 1, z: 0}
    size: 1
    tangent: {x: 0, y: 0, z: 0}
    tangent2: {x: 0, y: 0, z: 0}
  - _type: 0
    position: {x: 650, y: 3, z: 3}
    color: {r: 0, g: 0, b: 0, a: 0}
    normal: {x: 0, y: 1, z: 0}
    size: 1
    tangent: {x: 0, y: 0, z: 0}
    tangent2: {x: 0, y: 0, z: 0}
  - _type: 0
    position: {x: 700, y: 3, z: 3}
    color: {r: 0, g: 0, b: 0, a: 0}
    normal: {x: 0, y: 1, z: 0}
    size: 1
    tangent: {x: 0, y: 0, z: 0}
    tangent2: {x: 0, y: 0, z: 0}
  - _type: 0
    position: {x: 750, y: -5, z: -5}
    color: {r: 0, g: 0, b: 0, a: 0}
    normal: {x: 0, y: 1, z: 0}
    size: 1
    tangent: {x: 0, y: 0, z: 0}
    tangent2: {x: 0, y: 0, z: 0}
  - _type: 0
    position: {x: 800, y: -1, z: -1}
    color: {r: 0, g: 0, b: 0, a: 0}
    normal: {x: 0, y: 1, z: 0}
    size: 1
    tangent: {x: 0, y: 0, z: 0}
    tangent2: {x: 0, y: 0, z: 0}
  - _type: 0
    position: {x: 850, y: 12, z: 12}
    color: {r: 0, g: 0, b: 0, a: 0}
    normal: {x: 0, y: 1, z: 0}
    size: 1
    tangent: {x: 0, y: 0, z: 0}
    tangent2: {x: 0, y: 0, z: 0}
  - _type: 0
    position: {x: 900, y: -1, z: -1}
    color: {r: 0, g: 0, b: 0, a: 0}
    normal: {x: 0, y: 1, z: 0}
    size: 1
    tangent: {x: 0, y: 0, z: 0}
    tangent2: {x: 0, y: 0, z: 0}
  - _type: 0
    position: {x: 950, y: -14, z: -14}
    color: {r: 0, g: 0, b: 0, a: 0}
    normal: {x: 0, y: 1, z: 0}
    size: 1
    tangent: {x: 0, y: 0, z: 0}
    tangent2: {x: 0, y: 0, z: 0}
  - _type: 0
    position: {x: 1000, y: -20, z: -20}
    color: {r: 0, g: 0, b: 0, a: 0}
    normal: {x: 0, y: 1, z: 0}
    size: 1
    tangent: {x: 0, y: 0, z: 0}
    tangent2: {x: 0, y: 0, z: 0}
  - _type: 0
    position: {x: 1050, y: -13, z: -13}
    color: {r: 0, g: 0, b: 0, a: 0}
    normal: {x: 0, y: 1, z: 0}
    size: 1
    tangent: {x: 0, y: 0, z: 0}
    tangent2: {x: 0, y: 0, z: 0}
  - _type: 0
    position: {x: 1100, y: -30, z: -30}
    color: {r: 0, g: 0, b: 0, a: 0}
    normal: {x: 0, y: 1, z: 0}
    size: 1
    tangent: {x: 0, y: 0, z: 0}
    tangent2: {x: 0, y: 0, z: 0}
  - _type: 0
    position: {x: 1150, y: -17, z: -17}
    color: {r: 0, g: 0, b: 0, a: 0}
    normal: {x: 0, y: 1, z: 0}
    size: 1
    tangent: {x: 0, y: 0, z: 0}
    tangent2: {x: 0, y: 0, z: 0}
  - _type: 0
    position: {x: 1200, y: -24, z: -24}
    color: {r: 0, g: 0, b: 0, a: 0}
    normal: {x: 0, y: 1, z: 0}
    size: 1
    tangent: {x: 0, y: 0, z: 0}
    tangent2: {x: 0, y: 0, z: 0}
  tubeTexture: {fileID: 2800000, guid: 4cee54b7debf4d9479183554a31db351, type: 3}
  tubeMaterial: {fileID: 2100000, guid: 29930e25242ac4b73ad74e7cca4f5d9c, type: 2}
  tubeAndObstacleInsideLightColor: {r: 0, g: 0.8509804, b: 1, a: 1}
  tubeAndObstacleOutsideLightColor: {r: 1, g: 0, b: 0, a: 1}
  obstacleMaterial: {fileID: 2100000, guid: 48787c1fae6464ee38aeb468bc894a8c, type: 2}
  insideObstaclesData:
  - positionOnPath: 0.030595915
    rotationOffset: {x: 0, y: 0, z: 225}
    positionOffset: {x: 0, y: 0}
    speed: 0
    delay: 0
    obstacleType: {fileID: 11400000, guid: 16a77b6d21efc114996054dd6a3a53ac, type: 2}
  - positionOnPath: 0.046720035
    rotationOffset: {x: 0, y: 0, z: 225}
    positionOffset: {x: 0, y: 0}
    speed: 1
    delay: 0
    obstacleType: {fileID: 11400000, guid: 0696fbd001b712348926fd26dd222b8e, type: 2}
  - positionOnPath: 0.06335719
    rotationOffset: {x: 0, y: 0, z: 135}
    positionOffset: {x: 0, y: 0}
    speed: 0
    delay: 0
    obstacleType: {fileID: 11400000, guid: 16a77b6d21efc114996054dd6a3a53ac, type: 2}
  - positionOnPath: 0.079973705
    rotationOffset: {x: 0, y: 0, z: 90}
    positionOffset: {x: 0, y: 0}
    speed: 1
    delay: 0
    obstacleType: {fileID: 11400000, guid: 3f629b4f3adaebc468e17e818231b20a, type: 2}
  - positionOnPath: 0.09531981
    rotationOffset: {x: 0, y: 0, z: 315}
    positionOffset: {x: 0, y: 0}
    speed: 0
    delay: 0
    obstacleType: {fileID: 11400000, guid: 405e95598de27d74a843ab613d0aac51, type: 2}
  - positionOnPath: 0.10933415
    rotationOffset: {x: 0, y: 0, z: 90}
    positionOffset: {x: 0, y: 0}
    speed: 0
    delay: 0
    obstacleType: {fileID: 11400000, guid: 16a77b6d21efc114996054dd6a3a53ac, type: 2}
  - positionOnPath: 0.124112375
    rotationOffset: {x: 0, y: 0, z: 135}
    positionOffset: {x: 0, y: 0}
    speed: 1
    delay: 0.2
    obstacleType: {fileID: 11400000, guid: f2337e4f2d843e443b2b805695aab6ed, type: 2}
  - positionOnPath: 0.14056064
    rotationOffset: {x: 0, y: 0, z: 45}
    positionOffset: {x: 0, y: 0}
    speed: 0
    delay: 0
    obstacleType: {fileID: 11400000, guid: e7b8879ccee87f240b933e98e2322b3a, type: 2}
  - positionOnPath: 0.15722212
    rotationOffset: {x: 0, y: 0, z: 135}
    positionOffset: {x: 0, y: 0}
    speed: 0
    delay: 0
    obstacleType: {fileID: 11400000, guid: 3f74b0f158aad034d85edf0e5fc53696, type: 2}
  - positionOnPath: 0.17361027
    rotationOffset: {x: 0, y: 0, z: 270}
    positionOffset: {x: 0, y: 0}
    speed: 0
    delay: 0
    obstacleType: {fileID: 11400000, guid: 230d5dd1bbfee8f498f33da59f26b7b2, type: 2}
  - positionOnPath: 0.23524041
    rotationOffset: {x: 0, y: 0, z: 225}
    positionOffset: {x: 0, y: 0}
    speed: 0
    delay: 0
    obstacleType: {fileID: 11400000, guid: aa094fbe005d647c5a079ae729e3bf02, type: 2}
  - positionOnPath: 0.24979281
    rotationOffset: {x: 0, y: 0, z: 45}
    positionOffset: {x: 0, y: 0}
    speed: 1
    delay: 0
    obstacleType: {fileID: 11400000, guid: 0696fbd001b712348926fd26dd222b8e, type: 2}
  - positionOnPath: 0.26548204
    rotationOffset: {x: 0, y: 0, z: 225}
    positionOffset: {x: 0, y: 0}
    speed: 0
    delay: 0
    obstacleType: {fileID: 11400000, guid: 5616420dea0420644a1dc3be1e311682, type: 2}
  - positionOnPath: 0.28156668
    rotationOffset: {x: 0, y: 0, z: 180}
    positionOffset: {x: 0, y: 0}
    speed: 1
    delay: 0
    obstacleType: {fileID: 11400000, guid: 3f629b4f3adaebc468e17e818231b20a, type: 2}
  - positionOnPath: 0.29801652
    rotationOffset: {x: 0, y: 0, z: 225}
    positionOffset: {x: 0, y: 0}
    speed: 0
    delay: 0
    obstacleType: {fileID: 11400000, guid: 405e95598de27d74a843ab613d0aac51, type: 2}
  - positionOnPath: 0.31467623
    rotationOffset: {x: 0, y: 0, z: 90}
    positionOffset: {x: 0, y: 0}
    speed: 1
    delay: 0
    obstacleType: {fileID: 11400000, guid: 3f629b4f3adaebc468e17e818231b20a, type: 2}
  - positionOnPath: 0.33132133
    rotationOffset: {x: 0, y: 0, z: 0}
    positionOffset: {x: 0, y: 0}
    speed: 0
    delay: 0
    obstacleType: {fileID: 11400000, guid: aa094fbe005d647c5a079ae729e3bf02, type: 2}
  - positionOnPath: 0.34765399
    rotationOffset: {x: 0, y: 0, z: 270}
    positionOffset: {x: 0, y: 0}
    speed: 0
    delay: 0
    obstacleType: {fileID: 11400000, guid: 5616420dea0420644a1dc3be1e311682, type: 2}
  - positionOnPath: 0.36361787
    rotationOffset: {x: 0, y: 0, z: 225}
    positionOffset: {x: 0, y: 0}
    speed: 0
    delay: 0
    obstacleType: {fileID: 11400000, guid: 405e95598de27d74a843ab613d0aac51, type: 2}
  - positionOnPath: 0.37922323
    rotationOffset: {x: 0, y: 0, z: 315}
    positionOffset: {x: 0, y: 0}
    speed: 0
    delay: 0
    obstacleType: {fileID: 11400000, guid: 405e95598de27d74a843ab613d0aac51, type: 2}
  - positionOnPath: 0.4392305
    rotationOffset: {x: 0, y: 0, z: 135}
    positionOffset: {x: 0, y: 0}
    speed: 0
    delay: 0
    obstacleType: {fileID: 11400000, guid: 5616420dea0420644a1dc3be1e311682, type: 2}
  - positionOnPath: 0.45329857
    rotationOffset: {x: 0, y: 0, z: 90}
    positionOffset: {x: 0, y: 0}
    speed: 0
    delay: 0
    obstacleType: {fileID: 11400000, guid: aa094fbe005d647c5a079ae729e3bf02, type: 2}
  - positionOnPath: 0.46890545
    rotationOffset: {x: 0, y: 0, z: 135}
    positionOffset: {x: 0, y: 0}
    speed: 1
    delay: 0
    obstacleType: {fileID: 11400000, guid: 234677ccffe43a84ba49fe4d9365f767, type: 2}
  - positionOnPath: 0.485072
    rotationOffset: {x: 0, y: 0, z: 45}
    positionOffset: {x: 0, y: 0}
    speed: 0
    delay: 0
    obstacleType: {fileID: 11400000, guid: aa094fbe005d647c5a079ae729e3bf02, type: 2}
  - positionOnPath: 0.50167435
    rotationOffset: {x: 0, y: 0, z: 90}
    positionOffset: {x: 0, y: 0}
    speed: 0
    delay: 0
    obstacleType: {fileID: 11400000, guid: aa094fbe005d647c5a079ae729e3bf02, type: 2}
  - positionOnPath: 0.5174061
    rotationOffset: {x: 0, y: 0, z: 315}
    positionOffset: {x: 0, y: 0}
    speed: 1
    delay: 0
    obstacleType: {fileID: 11400000, guid: 0696fbd001b712348926fd26dd222b8e, type: 2}
  - positionOnPath: 0.53251624
    rotationOffset: {x: 0, y: 0, z: 45}
    positionOffset: {x: 0, y: 0}
    speed: 1
    delay: 0
    obstacleType: {fileID: 11400000, guid: 5d885db2816ccb74889006499d79ac95, type: 2}
  - positionOnPath: 0.54870385
    rotationOffset: {x: 0, y: 0, z: 270}
    positionOffset: {x: 0, y: 0}
    speed: 0
    delay: 0
    obstacleType: {fileID: 11400000, guid: 5616420dea0420644a1dc3be1e311682, type: 2}
  - positionOnPath: 0.5653476
    rotationOffset: {x: 0, y: 0, z: 225}
    positionOffset: {x: 0, y: 0}
    speed: 1
    delay: 0
    obstacleType: {fileID: 11400000, guid: 234677ccffe43a84ba49fe4d9365f767, type: 2}
  - positionOnPath: 0.5819926
    rotationOffset: {x: 0, y: 0, z: 135}
    positionOffset: {x: 0, y: 0}
    speed: 1
    delay: 0
    obstacleType: {fileID: 11400000, guid: 3f629b4f3adaebc468e17e818231b20a, type: 2}
  - positionOnPath: 0.6474584
    rotationOffset: {x: 0, y: 0, z: 315}
    positionOffset: {x: 0, y: 0}
    speed: 1
    delay: 0
    obstacleType: {fileID: 11400000, guid: 3f629b4f3adaebc468e17e818231b20a, type: 2}
  - positionOnPath: 0.6638414
    rotationOffset: {x: 0, y: 0, z: 270}
    positionOffset: {x: 0, y: 0}
    speed: 0
    delay: 0
    obstacleType: {fileID: 11400000, guid: 3f74b0f158aad034d85edf0e5fc53696, type: 2}
  - positionOnPath: 0.67948776
    rotationOffset: {x: 0, y: 0, z: 135}
    positionOffset: {x: 0, y: 0}
    speed: 1
    delay: 0
    obstacleType: {fileID: 11400000, guid: 0696fbd001b712348926fd26dd222b8e, type: 2}
  - positionOnPath: 0.69452196
    rotationOffset: {x: 0, y: 0, z: 270}
    positionOffset: {x: 0, y: 0}
    speed: 0
    delay: 0
    obstacleType: {fileID: 11400000, guid: aa094fbe005d647c5a079ae729e3bf02, type: 2}
  - positionOnPath: 0.7107306
    rotationOffset: {x: 0, y: 0, z: 225}
    positionOffset: {x: 0, y: 0}
    speed: 0
    delay: 0
    obstacleType: {fileID: 11400000, guid: e7b8879ccee87f240b933e98e2322b3a, type: 2}
  - positionOnPath: 0.7266894
    rotationOffset: {x: 0, y: 0, z: 90}
    positionOffset: {x: 0, y: 0}
    speed: 1
    delay: 0
    obstacleType: {fileID: 11400000, guid: 5d885db2816ccb74889006499d79ac95, type: 2}
  - positionOnPath: 0.7417377
    rotationOffset: {x: 0, y: 0, z: 225}
    positionOffset: {x: 0, y: 0}
    speed: 0
    delay: 0
    obstacleType: {fileID: 11400000, guid: 3f74b0f158aad034d85edf0e5fc53696, type: 2}
  - positionOnPath: 0.75717694
    rotationOffset: {x: 0, y: 0, z: 180}
    positionOffset: {x: 0, y: 0}
    speed: 0
    delay: 0
    obstacleType: {fileID: 11400000, guid: 405e95598de27d74a843ab613d0aac51, type: 2}
  - positionOnPath: 0.77266705
    rotationOffset: {x: 0, y: 0, z: 315}
    positionOffset: {x: 0, y: 0}
    speed: 0
    delay: 0
    obstacleType: {fileID: 11400000, guid: 230d5dd1bbfee8f498f33da59f26b7b2, type: 2}
  - positionOnPath: 0.7883948
    rotationOffset: {x: 0, y: 0, z: 270}
    positionOffset: {x: 0, y: 0}
    speed: 0
    delay: 0
    obstacleType: {fileID: 11400000, guid: aa094fbe005d647c5a079ae729e3bf02, type: 2}
  - positionOnPath: 0.85356313
    rotationOffset: {x: 0, y: 0, z: 180}
    positionOffset: {x: 0, y: 0}
    speed: 0
    delay: 0
    obstacleType: {fileID: 11400000, guid: 405e95598de27d74a843ab613d0aac51, type: 2}
  - positionOnPath: 0.8697546
    rotationOffset: {x: 0, y: 0, z: 0}
    positionOffset: {x: 0, y: 0}
    speed: 0
    delay: 0
    obstacleType: {fileID: 11400000, guid: 230d5dd1bbfee8f498f33da59f26b7b2, type: 2}
  - positionOnPath: 0.88562953
    rotationOffset: {x: 0, y: 0, z: 225}
    positionOffset: {x: 0, y: 0}
    speed: 0
    delay: 0
    obstacleType: {fileID: 11400000, guid: 405e95598de27d74a843ab613d0aac51, type: 2}
  - positionOnPath: 0.8996447
    rotationOffset: {x: 0, y: 0, z: 90}
    positionOffset: {x: 0, y: 0}
    speed: 0
    delay: 0
    obstacleType: {fileID: 11400000, guid: e7b8879ccee87f240b933e98e2322b3a, type: 2}
  - positionOnPath: 0.9147175
    rotationOffset: {x: 0, y: 0, z: 270}
    positionOffset: {x: 0, y: 0}
    speed: 0
    delay: 0
    obstacleType: {fileID: 11400000, guid: 5616420dea0420644a1dc3be1e311682, type: 2}
  - positionOnPath: 0.9307996
    rotationOffset: {x: 0, y: 0, z: 270}
    positionOffset: {x: 0, y: 0}
    speed: 0
    delay: 0
    obstacleType: {fileID: 11400000, guid: 3f74b0f158aad034d85edf0e5fc53696, type: 2}
  - positionOnPath: 0.94556075
    rotationOffset: {x: 0, y: 0, z: 270}
    positionOffset: {x: 0, y: 0}
    speed: 0
    delay: 0
    obstacleType: {fileID: 11400000, guid: 3f74b0f158aad034d85edf0e5fc53696, type: 2}
  - positionOnPath: 0.9614998
    rotationOffset: {x: 0, y: 0, z: 0}
    positionOffset: {x: 0, y: 0}
    speed: 1
    delay: 0
    obstacleType: {fileID: 11400000, guid: 0696fbd001b712348926fd26dd222b8e, type: 2}
  - positionOnPath: 0.97793597
    rotationOffset: {x: 0, y: 0, z: 0}
    positionOffset: {x: 0, y: 0}
    speed: 0
    delay: 0
    obstacleType: {fileID: 11400000, guid: 3f74b0f158aad034d85edf0e5fc53696, type: 2}
  outsideObstaclesData:
  - positionOnPath: 0.030595915
    rotationOffset: {x: 0, y: 0, z: 225}
    positionOffset: {x: 0, y: 0}
    speed: 1
    delay: 0
    obstacleType: {fileID: 11400000, guid: cfe5b8fd631fc8b4bba660932dc1761b, type: 2}
  - positionOnPath: 0.046720035
    rotationOffset: {x: 0, y: 0, z: 225}
    positionOffset: {x: 0, y: 0}
    speed: 1
    delay: 0
    obstacleType: {fileID: 11400000, guid: b85818dc12464ce48ad04847e9949039, type: 2}
  - positionOnPath: 0.06335719
    rotationOffset: {x: 0, y: 0, z: 315}
    positionOffset: {x: 0, y: 0}
    speed: 1
    delay: 0
    obstacleType: {fileID: 11400000, guid: cfe5b8fd631fc8b4bba660932dc1761b, type: 2}
  - positionOnPath: 0.079973705
    rotationOffset: {x: 0, y: 0, z: 135}
    positionOffset: {x: 0, y: 0}
    speed: 1
    delay: 0
    obstacleType: {fileID: 11400000, guid: b85818dc12464ce48ad04847e9949039, type: 2}
  - positionOnPath: 0.09531981
    rotationOffset: {x: 0, y: 0, z: 315}
    positionOffset: {x: 0, y: 0}
    speed: 1
    delay: 0
    obstacleType: {fileID: 11400000, guid: dce99673ce07a4d459d4a7581f383c77, type: 2}
  - positionOnPath: 0.10933415
    rotationOffset: {x: 0, y: 0, z: 135}
    positionOffset: {x: 0, y: 0}
    speed: 1
    delay: 0
    obstacleType: {fileID: 11400000, guid: b85818dc12464ce48ad04847e9949039, type: 2}
  - positionOnPath: 0.124112375
    rotationOffset: {x: 0, y: 0, z: 135}
    positionOffset: {x: 0, y: 0}
    speed: 0
    delay: 0
    obstacleType: {fileID: 11400000, guid: ee2d408287ce11a418e8a868a4014320, type: 2}
  - positionOnPath: 0.14056064
    rotationOffset: {x: 0, y: 0, z: 180}
    positionOffset: {x: 0, y: 0}
    speed: 1
    delay: 0
    obstacleType: {fileID: 11400000, guid: b85818dc12464ce48ad04847e9949039, type: 2}
  - positionOnPath: 0.15722212
    rotationOffset: {x: 0, y: 0, z: 225}
    positionOffset: {x: 0, y: 0}
    speed: 1
    delay: 0
    obstacleType: {fileID: 11400000, guid: b85818dc12464ce48ad04847e9949039, type: 2}
  - positionOnPath: 0.17361027
    rotationOffset: {x: 0, y: 0, z: 45}
    positionOffset: {x: 0, y: 0}
    speed: 1
    delay: 0
    obstacleType: {fileID: 11400000, guid: 604269e9238561b4eb5872e6b86ead91, type: 2}
  - positionOnPath: 0.23524041
    rotationOffset: {x: 0, y: 0, z: 45}
    positionOffset: {x: 0, y: 0}
    speed: 0
    delay: 0
    obstacleType: {fileID: 11400000, guid: ee2d408287ce11a418e8a868a4014320, type: 2}
  - positionOnPath: 0.24979281
    rotationOffset: {x: 0, y: 0, z: 90}
    positionOffset: {x: 0, y: 0}
    speed: 1
    delay: 0
    obstacleType: {fileID: 11400000, guid: 3bf1b645921bce94f88752b82bfbf93c, type: 2}
  - positionOnPath: 0.26548204
    rotationOffset: {x: 0, y: 0, z: 180}
    positionOffset: {x: 0, y: 0}
    speed: 1
    delay: 0
    obstacleType: {fileID: 11400000, guid: dce99673ce07a4d459d4a7581f383c77, type: 2}
  - positionOnPath: 0.28156668
    rotationOffset: {x: 0, y: 0, z: 135}
    positionOffset: {x: 0, y: 0}
    speed: 0
    delay: 0
    obstacleType: {fileID: 11400000, guid: 148cf7450a4f0584aad5f7d2d85e953a, type: 2}
  - positionOnPath: 0.29801652
    rotationOffset: {x: 0, y: 0, z: 45}
    positionOffset: {x: 0, y: 0}
    speed: 0
    delay: 0
    obstacleType: {fileID: 11400000, guid: 148cf7450a4f0584aad5f7d2d85e953a, type: 2}
  - positionOnPath: 0.31467623
    rotationOffset: {x: 0, y: 0, z: 180}
    positionOffset: {x: 0, y: 0}
    speed: 1
    delay: 0
    obstacleType: {fileID: 11400000, guid: b85818dc12464ce48ad04847e9949039, type: 2}
  - positionOnPath: 0.33132133
    rotationOffset: {x: 0, y: 0, z: 270}
    positionOffset: {x: 0, y: 0}
    speed: 0
    delay: 0
    obstacleType: {fileID: 11400000, guid: 148cf7450a4f0584aad5f7d2d85e953a, type: 2}
  - positionOnPath: 0.34765399
    rotationOffset: {x: 0, y: 0, z: 45}
    positionOffset: {x: 0, y: 0}
    speed: 0
    delay: 0
    obstacleType: {fileID: 11400000, guid: 750dc2d22081ec4419ebaddaca063e65, type: 2}
  - positionOnPath: 0.36361787
    rotationOffset: {x: 0, y: 0, z: 90}
    positionOffset: {x: 0, y: 0}
    speed: 1
    delay: 0
    obstacleType: {fileID: 11400000, guid: b85818dc12464ce48ad04847e9949039, type: 2}
  - positionOnPath: 0.37922323
    rotationOffset: {x: 0, y: 0, z: 90}
    positionOffset: {x: 0, y: 0}
    speed: 1
    delay: 0
    obstacleType: {fileID: 11400000, guid: 604269e9238561b4eb5872e6b86ead91, type: 2}
  - positionOnPath: 0.4392305
    rotationOffset: {x: 0, y: 0, z: 180}
    positionOffset: {x: 0, y: 0}
    speed: 0
    delay: 0
    obstacleType: {fileID: 11400000, guid: ee2d408287ce11a418e8a868a4014320, type: 2}
  - positionOnPath: 0.45329857
    rotationOffset: {x: 0, y: 0, z: 315}
    positionOffset: {x: 0, y: 0}
    speed: 1
    delay: 0
    obstacleType: {fileID: 11400000, guid: 604269e9238561b4eb5872e6b86ead91, type: 2}
  - positionOnPath: 0.46890545
    rotationOffset: {x: 0, y: 0, z: 315}
    positionOffset: {x: 0, y: 0}
    speed: 0
    delay: 0
    obstacleType: {fileID: 11400000, guid: b877eb5ec629fa34da49a0e126ea8469, type: 2}
  - positionOnPath: 0.485072
    rotationOffset: {x: 0, y: 0, z: 45}
    positionOffset: {x: 0, y: 0}
    speed: 0
    delay: 0
    obstacleType: {fileID: 11400000, guid: 148cf7450a4f0584aad5f7d2d85e953a, type: 2}
  - positionOnPath: 0.50167435
    rotationOffset: {x: 0, y: 0, z: 180}
    positionOffset: {x: 0, y: 0}
    speed: 1
    delay: 0
    obstacleType: {fileID: 11400000, guid: 604269e9238561b4eb5872e6b86ead91, type: 2}
  - positionOnPath: 0.5174061
    rotationOffset: {x: 0, y: 0, z: 0}
    positionOffset: {x: 0, y: 0}
    speed: 0
    delay: 0
    obstacleType: {fileID: 11400000, guid: ee2d408287ce11a418e8a868a4014320, type: 2}
  - positionOnPath: 0.53251624
    rotationOffset: {x: 0, y: 0, z: 315}
    positionOffset: {x: 0, y: 0}
    speed: 0
    delay: 0
    obstacleType: {fileID: 11400000, guid: 148cf7450a4f0584aad5f7d2d85e953a, type: 2}
  - positionOnPath: 0.54870385
    rotationOffset: {x: 0, y: 0, z: 225}
    positionOffset: {x: 0, y: 0}
    speed: 1
    delay: 0
    obstacleType: {fileID: 11400000, guid: 3bf1b645921bce94f88752b82bfbf93c, type: 2}
  - positionOnPath: 0.5653476
    rotationOffset: {x: 0, y: 0, z: 45}
    positionOffset: {x: 0, y: 0}
    speed: 0
    delay: 0
    obstacleType: {fileID: 11400000, guid: ee2d408287ce11a418e8a868a4014320, type: 2}
  - positionOnPath: 0.5819926
    rotationOffset: {x: 0, y: 0, z: 135}
    positionOffset: {x: 0, y: 0}
    speed: 1
    delay: 0
    obstacleType: {fileID: 11400000, guid: 3bf1b645921bce94f88752b82bfbf93c, type: 2}
  - positionOnPath: 0.6474584
    rotationOffset: {x: 0, y: 0, z: 90}
    positionOffset: {x: 0, y: 0}
    speed: 1
    delay: 0
    obstacleType: {fileID: 11400000, guid: 3bf1b645921bce94f88752b82bfbf93c, type: 2}
  - positionOnPath: 0.6638414
    rotationOffset: {x: 0, y: 0, z: 225}
    positionOffset: {x: 0, y: 0}
    speed: 0
    delay: 0
    obstacleType: {fileID: 11400000, guid: ee2d408287ce11a418e8a868a4014320, type: 2}
  - positionOnPath: 0.67948776
    rotationOffset: {x: 0, y: 0, z: 270}
    positionOffset: {x: 0, y: 0}
    speed: 0
    delay: 0
    obstacleType: {fileID: 11400000, guid: 148cf7450a4f0584aad5f7d2d85e953a, type: 2}
  - positionOnPath: 0.69452196
    rotationOffset: {x: 0, y: 0, z: 225}
    positionOffset: {x: 0, y: 0}
    speed: 1
    delay: 0
    obstacleType: {fileID: 11400000, guid: dce99673ce07a4d459d4a7581f383c77, type: 2}
  - positionOnPath: 0.7107306
    rotationOffset: {x: 0, y: 0, z: 135}
    positionOffset: {x: 0, y: 0}
    speed: 1
    delay: 0
    obstacleType: {fileID: 11400000, guid: dce99673ce07a4d459d4a7581f383c77, type: 2}
  - positionOnPath: 0.7266894
    rotationOffset: {x: 0, y: 0, z: 45}
    positionOffset: {x: 0, y: 0}
    speed: 0
    delay: 0
    obstacleType: {fileID: 11400000, guid: ee2d408287ce11a418e8a868a4014320, type: 2}
  - positionOnPath: 0.7417377
    rotationOffset: {x: 0, y: 0, z: 315}
    positionOffset: {x: 0, y: 0}
    speed: 1
    delay: 0
    obstacleType: {fileID: 11400000, guid: b85818dc12464ce48ad04847e9949039, type: 2}
  - positionOnPath: 0.75717694
    rotationOffset: {x: 0, y: 0, z: 45}
    positionOffset: {x: 0, y: 0}
    speed: 0
    delay: 0
    obstacleType: {fileID: 11400000, guid: 750dc2d22081ec4419ebaddaca063e65, type: 2}
  - positionOnPath: 0.77266705
    rotationOffset: {x: 0, y: 0, z: 135}
    positionOffset: {x: 0, y: 0}
    speed: 1
    delay: 0
    obstacleType: {fileID: 11400000, guid: dce99673ce07a4d459d4a7581f383c77, type: 2}
  - positionOnPath: 0.7883948
    rotationOffset: {x: 0, y: 0, z: 225}
    positionOffset: {x: 0, y: 0}
    speed: 1
    delay: 0
    obstacleType: {fileID: 11400000, guid: cfe5b8fd631fc8b4bba660932dc1761b, type: 2}
  - positionOnPath: 0.85356313
    rotationOffset: {x: 0, y: 0, z: 135}
    positionOffset: {x: 0, y: 0}
    speed: 1
    delay: 0
    obstacleType: {fileID: 11400000, guid: 3bf1b645921bce94f88752b82bfbf93c, type: 2}
  - positionOnPath: 0.8697546
    rotationOffset: {x: 0, y: 0, z: 270}
    positionOffset: {x: 0, y: 0}
    speed: 1
    delay: 0
    obstacleType: {fileID: 11400000, guid: 604269e9238561b4eb5872e6b86ead91, type: 2}
  - positionOnPath: 0.88562953
    rotationOffset: {x: 0, y: 0, z: 0}
    positionOffset: {x: 0, y: 0}
    speed: 0
    delay: 0
    obstacleType: {fileID: 11400000, guid: ee2d408287ce11a418e8a868a4014320, type: 2}
  - positionOnPath: 0.8996447
    rotationOffset: {x: 0, y: 0, z: 0}
    positionOffset: {x: 0, y: 0}
    speed: 1
    delay: 0
    obstacleType: {fileID: 11400000, guid: cfe5b8fd631fc8b4bba660932dc1761b, type: 2}
  - positionOnPath: 0.9147175
    rotationOffset: {x: 0, y: 0, z: 180}
    positionOffset: {x: 0, y: 0}
    speed: 1
    delay: 0
    obstacleType: {fileID: 11400000, guid: 604269e9238561b4eb5872e6b86ead91, type: 2}
  - positionOnPath: 0.9307996
    rotationOffset: {x: 0, y: 0, z: 90}
    positionOffset: {x: 0, y: 0}
    speed: 0
    delay: 0
    obstacleType: {fileID: 11400000, guid: 148cf7450a4f0584aad5f7d2d85e953a, type: 2}
  - positionOnPath: 0.94556075
    rotationOffset: {x: 0, y: 0, z: 90}
    positionOffset: {x: 0, y: 0}
    speed: 1
    delay: 0
    obstacleType: {fileID: 11400000, guid: cfe5b8fd631fc8b4bba660932dc1761b, type: 2}
  - positionOnPath: 0.9614998
    rotationOffset: {x: 0, y: 0, z: 180}
    positionOffset: {x: 0, y: 0}
    speed: 1
    delay: 0
    obstacleType: {fileID: 11400000, guid: cfe5b8fd631fc8b4bba660932dc1761b, type: 2}
  - positionOnPath: 0.97793597
    rotationOffset: {x: 0, y: 0, z: 315}
    positionOffset: {x: 0, y: 0}
    speed: 0
    delay: 0
    obstacleType: {fileID: 11400000, guid: 148cf7450a4f0584aad5f7d2d85e953a, type: 2}
  _insideVFXObjects: []
  _outsideVFXObjects: []
