%YAML 1.1
%TAG !u! tag:unity3d.com,2011:
--- !u!114 &11400000
MonoBehaviour:
  m_ObjectHideFlags: 0
  m_CorrespondingSourceObject: {fileID: 0}
  m_PrefabInstance: {fileID: 0}
  m_PrefabAsset: {fileID: 0}
  m_GameObject: {fileID: 0}
  m_Enabled: 1
  m_EditorHideFlags: 0
  m_Script: {fileID: 11500000, guid: 8b7b0ee2e7a4de24e80a1eb21b48dc89, type: 3}
  m_Name: Level_6
  m_EditorClassIdentifier: 
  tubePoints:
  - _type: 0
    position: {x: 0, y: 0, z: 0}
    color: {r: 0, g: 0, b: 0, a: 0}
    normal: {x: 0, y: 1, z: 0}
    size: 1
    tangent: {x: 0, y: 0, z: 0}
    tangent2: {x: 0, y: 0, z: 0}
  - _type: 0
    position: {x: 50, y: -18, z: -18}
    color: {r: 0, g: 0, b: 0, a: 0}
    normal: {x: 0, y: 1, z: 0}
    size: 1
    tangent: {x: 0, y: 0, z: 0}
    tangent2: {x: 0, y: 0, z: 0}
  - _type: 0
    position: {x: 100, y: -21, z: -21}
    color: {r: 0, g: 0, b: 0, a: 0}
    normal: {x: 0, y: 1, z: 0}
    size: 1
    tangent: {x: 0, y: 0, z: 0}
    tangent2: {x: 0, y: 0, z: 0}
  - _type: 0
    position: {x: 150, y: -21, z: -21}
    color: {r: 0, g: 0, b: 0, a: 0}
    normal: {x: 0, y: 1, z: 0}
    size: 1
    tangent: {x: 0, y: 0, z: 0}
    tangent2: {x: 0, y: 0, z: 0}
  - _type: 0
    position: {x: 200, y: -30, z: -30}
    color: {r: 0, g: 0, b: 0, a: 0}
    normal: {x: 0, y: 1, z: 0}
    size: 1
    tangent: {x: 0, y: 0, z: 0}
    tangent2: {x: 0, y: 0, z: 0}
  tubeTexture: {fileID: 2800000, guid: 4cee54b7debf4d9479183554a31db351, type: 3}
  tubeMaterial: {fileID: 2100000, guid: 29930e25242ac4b73ad74e7cca4f5d9c, type: 2}
  tubeAndObstacleInsideLightColor: {r: 0, g: 0.8509804, b: 1, a: 1}
  tubeAndObstacleOutsideLightColor: {r: 1, g: 0, b: 0, a: 1}
  obstacleMaterial: {fileID: 2100000, guid: 48787c1fae6464ee38aeb468bc894a8c, type: 2}
  insideObstaclesData:
  - positionOnPath: 0.17494287
    rotationOffset: {x: 0, y: 0, z: 135}
    positionOffset: {x: 0, y: 0}
    speed: 0
    delay: 0
    obstacleType: {fileID: 11400000, guid: 405e95598de27d74a843ab613d0aac51, type: 2}
  - positionOnPath: 0.26826018
    rotationOffset: {x: 0, y: 0, z: 315}
    positionOffset: {x: 0, y: 0}
    speed: 0
    delay: 0
    obstacleType: {fileID: 11400000, guid: 405e95598de27d74a843ab613d0aac51, type: 2}
  - positionOnPath: 0.36722338
    rotationOffset: {x: 0, y: 0, z: 270}
    positionOffset: {x: 0, y: 0}
    speed: 0
    delay: 0
    obstacleType: {fileID: 11400000, guid: 230d5dd1bbfee8f498f33da59f26b7b2, type: 2}
  - positionOnPath: 0.46719548
    rotationOffset: {x: 0, y: 0, z: 225}
    positionOffset: {x: 0, y: 0}
    speed: 1
    delay: 0
    obstacleType: {fileID: 11400000, guid: 234677ccffe43a84ba49fe4d9365f767, type: 2}
  - positionOnPath: 0.66708916
    rotationOffset: {x: 0, y: 0, z: 0}
    positionOffset: {x: 0, y: 0}
    speed: 1
    delay: 0
    obstacleType: {fileID: 11400000, guid: 0696fbd001b712348926fd26dd222b8e, type: 2}
  - positionOnPath: 0.7667538
    rotationOffset: {x: 0, y: 0, z: 135}
    positionOffset: {x: 0, y: 0}
    speed: 0
    delay: 0
    obstacleType: {fileID: 11400000, guid: 405e95598de27d74a843ab613d0aac51, type: 2}
  - positionOnPath: 0.8641644
    rotationOffset: {x: 0, y: 0, z: 90}
    positionOffset: {x: 0, y: 0}
    speed: 1
    delay: 0
    obstacleType: {fileID: 11400000, guid: 0696fbd001b712348926fd26dd222b8e, type: 2}
  - positionOnPath: 0.96015096
    rotationOffset: {x: 0, y: 0, z: 270}
    positionOffset: {x: 0, y: 0}
    speed: 1
    delay: 0.2
    obstacleType: {fileID: 11400000, guid: f2337e4f2d843e443b2b805695aab6ed, type: 2}
  outsideObstaclesData:
  - positionOnPath: 0.17494287
    rotationOffset: {x: 0, y: 0, z: 270}
    positionOffset: {x: 0, y: 0}
    speed: 0
    delay: 0
    obstacleType: {fileID: 11400000, guid: 750dc2d22081ec4419ebaddaca063e65, type: 2}
  - positionOnPath: 0.26826018
    rotationOffset: {x: 0, y: 0, z: 315}
    positionOffset: {x: 0, y: 0}
    speed: 0
    delay: 0
    obstacleType: {fileID: 11400000, guid: 750dc2d22081ec4419ebaddaca063e65, type: 2}
  - positionOnPath: 0.36722338
    rotationOffset: {x: 0, y: 0, z: 315}
    positionOffset: {x: 0, y: 0}
    speed: 1
    delay: 0
    obstacleType: {fileID: 11400000, guid: dce99673ce07a4d459d4a7581f383c77, type: 2}
  - positionOnPath: 0.46719548
    rotationOffset: {x: 0, y: 0, z: 270}
    positionOffset: {x: 0, y: 0}
    speed: 1
    delay: 0
    obstacleType: {fileID: 11400000, guid: dce99673ce07a4d459d4a7581f383c77, type: 2}
  - positionOnPath: 0.66708916
    rotationOffset: {x: 0, y: 0, z: 225}
    positionOffset: {x: 0, y: 0}
    speed: 1
    delay: 0
    obstacleType: {fileID: 11400000, guid: 604269e9238561b4eb5872e6b86ead91, type: 2}
  - positionOnPath: 0.7667538
    rotationOffset: {x: 0, y: 0, z: 135}
    positionOffset: {x: 0, y: 0}
    speed: 1
    delay: 0
    obstacleType: {fileID: 11400000, guid: cfe5b8fd631fc8b4bba660932dc1761b, type: 2}
  - positionOnPath: 0.8641644
    rotationOffset: {x: 0, y: 0, z: 180}
    positionOffset: {x: 0, y: 0}
    speed: 1
    delay: 0
    obstacleType: {fileID: 11400000, guid: b85818dc12464ce48ad04847e9949039, type: 2}
  - positionOnPath: 0.96015096
    rotationOffset: {x: 0, y: 0, z: 225}
    positionOffset: {x: 0, y: 0}
    speed: 1
    delay: 0
    obstacleType: {fileID: 11400000, guid: b85818dc12464ce48ad04847e9949039, type: 2}
  _insideVFXObjects: []
  _outsideVFXObjects: []
