%YAML 1.1
%TAG !u! tag:unity3d.com,2011:
--- !u!114 &11400000
MonoBehaviour:
  m_ObjectHideFlags: 0
  m_CorrespondingSourceObject: {fileID: 0}
  m_PrefabInstance: {fileID: 0}
  m_PrefabAsset: {fileID: 0}
  m_GameObject: {fileID: 0}
  m_Enabled: 1
  m_EditorHideFlags: 0
  m_Script: {fileID: 11500000, guid: 8b7b0ee2e7a4de24e80a1eb21b48dc89, type: 3}
  m_Name: Level_24
  m_EditorClassIdentifier: 
  tubePoints:
  - _type: 0
    position: {x: 18, y: -9, z: 6}
    color: {r: 0, g: 0, b: 0, a: 0}
    normal: {x: 0.57735026, y: 0.57735026, z: 0.57735026}
    size: 1
    tangent: {x: 0, y: 0, z: 0}
    tangent2: {x: 0, y: 0, z: 0}
  - _type: 0
    position: {x: 36, y: -18, z: 8}
    color: {r: 0, g: 0, b: 0, a: 0}
    normal: {x: 0.57735026, y: 0.57735026, z: 0.57735026}
    size: 1
    tangent: {x: 0, y: 0, z: 0}
    tangent2: {x: 0, y: 0, z: 0}
  - _type: 0
    position: {x: 54, y: -31, z: 16}
    color: {r: 0, g: 0, b: 0, a: 0}
    normal: {x: 0.57735026, y: 0.57735026, z: 0.57735026}
    size: 1
    tangent: {x: 0, y: 0, z: 0}
    tangent2: {x: 0, y: 0, z: 0}
  - _type: 0
    position: {x: 72, y: -31, z: 7}
    color: {r: 0, g: 0, b: 0, a: 0}
    normal: {x: 0.57735026, y: 0.57735026, z: 0.57735026}
    size: 1
    tangent: {x: 0, y: 0, z: 0}
    tangent2: {x: 0, y: 0, z: 0}
  - _type: 0
    position: {x: 90, y: -23, z: 17}
    color: {r: 0, g: 0, b: 0, a: 0}
    normal: {x: 0.57735026, y: 0.57735026, z: 0.57735026}
    size: 1
    tangent: {x: 0, y: 0, z: 0}
    tangent2: {x: 0, y: 0, z: 0}
  - _type: 0
    position: {x: 108, y: -27, z: 29}
    color: {r: 0, g: 0, b: 0, a: 0}
    normal: {x: 0.57735026, y: 0.57735026, z: 0.57735026}
    size: 1
    tangent: {x: 0, y: 0, z: 0}
    tangent2: {x: 0, y: 0, z: 0}
  - _type: 0
    position: {x: 126, y: -27, z: 23}
    color: {r: 0, g: 0, b: 0, a: 0}
    normal: {x: 0.57735026, y: 0.57735026, z: 0.57735026}
    size: 1
    tangent: {x: 0, y: 0, z: 0}
    tangent2: {x: 0, y: 0, z: 0}
  - _type: 0
    position: {x: 144, y: -40, z: 25}
    color: {r: 0, g: 0, b: 0, a: 0}
    normal: {x: 0.57735026, y: 0.57735026, z: 0.57735026}
    size: 1
    tangent: {x: 0, y: 0, z: 0}
    tangent2: {x: 0, y: 0, z: 0}
  - _type: 0
    position: {x: 162, y: -28, z: 32}
    color: {r: 0, g: 0, b: 0, a: 0}
    normal: {x: 0.57735026, y: 0.57735026, z: 0.57735026}
    size: 1
    tangent: {x: 0, y: 0, z: 0}
    tangent2: {x: 0, y: 0, z: 0}
  - _type: 0
    position: {x: 180, y: -19, z: 37}
    color: {r: 0, g: 0, b: 0, a: 0}
    normal: {x: 0.57735026, y: 0.57735026, z: 0.57735026}
    size: 1
    tangent: {x: 0, y: 0, z: 0}
    tangent2: {x: 0, y: 0, z: 0}
  - _type: 0
    position: {x: 198, y: -30, z: 35}
    color: {r: 0, g: 0, b: 0, a: 0}
    normal: {x: 0.57735026, y: 0.57735026, z: 0.57735026}
    size: 1
    tangent: {x: 0, y: 0, z: 0}
    tangent2: {x: 0, y: 0, z: 0}
  - _type: 0
    position: {x: 216, y: -23, z: 29}
    color: {r: 0, g: 0, b: 0, a: 0}
    normal: {x: 0.57735026, y: 0.57735026, z: 0.57735026}
    size: 1
    tangent: {x: 0, y: 0, z: 0}
    tangent2: {x: 0, y: 0, z: 0}
  - _type: 0
    position: {x: 234, y: -9, z: 34}
    color: {r: 0, g: 0, b: 0, a: 0}
    normal: {x: 0.57735026, y: 0.57735026, z: 0.57735026}
    size: 1
    tangent: {x: 0, y: 0, z: 0}
    tangent2: {x: 0, y: 0, z: 0}
  - _type: 0
    position: {x: 252, y: -3, z: 38}
    color: {r: 0, g: 0, b: 0, a: 0}
    normal: {x: 0.57735026, y: 0.57735026, z: 0.57735026}
    size: 1
    tangent: {x: 0, y: 0, z: 0}
    tangent2: {x: 0, y: 0, z: 0}
  - _type: 0
    position: {x: 270, y: -15, z: 51}
    color: {r: 0, g: 0, b: 0, a: 0}
    normal: {x: 0.57735026, y: 0.57735026, z: 0.57735026}
    size: 1
    tangent: {x: 0, y: 0, z: 0}
    tangent2: {x: 0, y: 0, z: 0}
  - _type: 0
    position: {x: 288, y: -1, z: 61}
    color: {r: 0, g: 0, b: 0, a: 0}
    normal: {x: 0.57735026, y: 0.57735026, z: 0.57735026}
    size: 1
    tangent: {x: 0, y: 0, z: 0}
    tangent2: {x: 0, y: 0, z: 0}
  - _type: 0
    position: {x: 306, y: -7, z: 60}
    color: {r: 0, g: 0, b: 0, a: 0}
    normal: {x: 0.57735026, y: 0.57735026, z: 0.57735026}
    size: 1
    tangent: {x: 0, y: 0, z: 0}
    tangent2: {x: 0, y: 0, z: 0}
  - _type: 0
    position: {x: 324, y: -13, z: 57}
    color: {r: 0, g: 0, b: 0, a: 0}
    normal: {x: 0.57735026, y: 0.57735026, z: 0.57735026}
    size: 1
    tangent: {x: 0, y: 0, z: 0}
    tangent2: {x: 0, y: 0, z: 0}
  - _type: 0
    position: {x: 342, y: -24, z: 46}
    color: {r: 0, g: 0, b: 0, a: 0}
    normal: {x: 0.57735026, y: 0.57735026, z: 0.57735026}
    size: 1
    tangent: {x: 0, y: 0, z: 0}
    tangent2: {x: 0, y: 0, z: 0}
  - _type: 0
    position: {x: 360, y: -24, z: 56}
    color: {r: 0, g: 0, b: 0, a: 0}
    normal: {x: 0.57735026, y: 0.57735026, z: 0.57735026}
    size: 1
    tangent: {x: 0, y: 0, z: 0}
    tangent2: {x: 0, y: 0, z: 0}
  - _type: 0
    position: {x: 378, y: -38, z: 48}
    color: {r: 0, g: 0, b: 0, a: 0}
    normal: {x: 0.57735026, y: 0.57735026, z: 0.57735026}
    size: 1
    tangent: {x: 0, y: 0, z: 0}
    tangent2: {x: 0, y: 0, z: 0}
  - _type: 0
    position: {x: 396, y: -43, z: 59}
    color: {r: 0, g: 0, b: 0, a: 0}
    normal: {x: 0.57735026, y: 0.57735026, z: 0.57735026}
    size: 1
    tangent: {x: 0, y: 0, z: 0}
    tangent2: {x: 0, y: 0, z: 0}
  - _type: 0
    position: {x: 414, y: -35, z: 72}
    color: {r: 0, g: 0, b: 0, a: 0}
    normal: {x: 0.57735026, y: 0.57735026, z: 0.57735026}
    size: 1
    tangent: {x: 0, y: 0, z: 0}
    tangent2: {x: 0, y: 0, z: 0}
  - _type: 0
    position: {x: 432, y: -34, z: 59}
    color: {r: 0, g: 0, b: 0, a: 0}
    normal: {x: 0.57735026, y: 0.57735026, z: 0.57735026}
    size: 1
    tangent: {x: 0, y: 0, z: 0}
    tangent2: {x: 0, y: 0, z: 0}
  - _type: 0
    position: {x: 450, y: -26, z: 71}
    color: {r: 0, g: 0, b: 0, a: 0}
    normal: {x: 0.57735026, y: 0.57735026, z: 0.57735026}
    size: 1
    tangent: {x: 0, y: 0, z: 0}
    tangent2: {x: 0, y: 0, z: 0}
  - _type: 0
    position: {x: 468, y: -14, z: 78}
    color: {r: 0, g: 0, b: 0, a: 0}
    normal: {x: 0.57735026, y: 0.57735026, z: 0.57735026}
    size: 1
    tangent: {x: 0, y: 0, z: 0}
    tangent2: {x: 0, y: 0, z: 0}
  - _type: 0
    position: {x: 486, y: -22, z: 90}
    color: {r: 0, g: 0, b: 0, a: 0}
    normal: {x: 0.57735026, y: 0.57735026, z: 0.57735026}
    size: 1
    tangent: {x: 0, y: 0, z: 0}
    tangent2: {x: 0, y: 0, z: 0}
  - _type: 0
    position: {x: 504, y: -34, z: 104}
    color: {r: 0, g: 0, b: 0, a: 0}
    normal: {x: 0.57735026, y: 0.57735026, z: 0.57735026}
    size: 1
    tangent: {x: 0, y: 0, z: 0}
    tangent2: {x: 0, y: 0, z: 0}
  - _type: 0
    position: {x: 522, y: -22, z: 111}
    color: {r: 0, g: 0, b: 0, a: 0}
    normal: {x: 0.57735026, y: 0.57735026, z: 0.57735026}
    size: 1
    tangent: {x: 0, y: 0, z: 0}
    tangent2: {x: 0, y: 0, z: 0}
  - _type: 0
    position: {x: 540, y: -8, z: 98}
    color: {r: 0, g: 0, b: 0, a: 0}
    normal: {x: 0.57735026, y: 0.57735026, z: 0.57735026}
    size: 1
    tangent: {x: 0, y: 0, z: 0}
    tangent2: {x: 0, y: 0, z: 0}
  - _type: 0
    position: {x: 558, y: -7, z: 88}
    color: {r: 0, g: 0, b: 0, a: 0}
    normal: {x: 0.57735026, y: 0.57735026, z: 0.57735026}
    size: 1
    tangent: {x: 0, y: 0, z: 0}
    tangent2: {x: 0, y: 0, z: 0}
  - _type: 0
    position: {x: 576, y: -9, z: 102}
    color: {r: 0, g: 0, b: 0, a: 0}
    normal: {x: 0.57735026, y: 0.57735026, z: 0.57735026}
    size: 1
    tangent: {x: 0, y: 0, z: 0}
    tangent2: {x: 0, y: 0, z: 0}
  - _type: 0
    position: {x: 594, y: -21, z: 107}
    color: {r: 0, g: 0, b: 0, a: 0}
    normal: {x: 0.57735026, y: 0.57735026, z: 0.57735026}
    size: 1
    tangent: {x: 0, y: 0, z: 0}
    tangent2: {x: 0, y: 0, z: 0}
  - _type: 0
    position: {x: 612, y: -26, z: 103}
    color: {r: 0, g: 0, b: 0, a: 0}
    normal: {x: 0.57735026, y: 0.57735026, z: 0.57735026}
    size: 1
    tangent: {x: 0, y: 0, z: 0}
    tangent2: {x: 0, y: 0, z: 0}
  - _type: 0
    position: {x: 630, y: -18, z: 92}
    color: {r: 0, g: 0, b: 0, a: 0}
    normal: {x: 0.57735026, y: 0.57735026, z: 0.57735026}
    size: 1
    tangent: {x: 0, y: 0, z: 0}
    tangent2: {x: 0, y: 0, z: 0}
  - _type: 0
    position: {x: 648, y: -30, z: 88}
    color: {r: 0, g: 0, b: 0, a: 0}
    normal: {x: 0.57735026, y: 0.57735026, z: 0.57735026}
    size: 1
    tangent: {x: 0, y: 0, z: 0}
    tangent2: {x: 0, y: 0, z: 0}
  - _type: 0
    position: {x: 666, y: -25, z: 76}
    color: {r: 0, g: 0, b: 0, a: 0}
    normal: {x: 0.57735026, y: 0.57735026, z: 0.57735026}
    size: 1
    tangent: {x: 0, y: 0, z: 0}
    tangent2: {x: 0, y: 0, z: 0}
  - _type: 0
    position: {x: 684, y: -33, z: 74}
    color: {r: 0, g: 0, b: 0, a: 0}
    normal: {x: 0.57735026, y: 0.57735026, z: 0.57735026}
    size: 1
    tangent: {x: 0, y: 0, z: 0}
    tangent2: {x: 0, y: 0, z: 0}
  - _type: 0
    position: {x: 702, y: -35, z: 67}
    color: {r: 0, g: 0, b: 0, a: 0}
    normal: {x: 0.57735026, y: 0.57735026, z: 0.57735026}
    size: 1
    tangent: {x: 0, y: 0, z: 0}
    tangent2: {x: 0, y: 0, z: 0}
  - _type: 0
    position: {x: 720, y: -33, z: 79}
    color: {r: 0, g: 0, b: 0, a: 0}
    normal: {x: 0.57735026, y: 0.57735026, z: 0.57735026}
    size: 1
    tangent: {x: 0, y: 0, z: 0}
    tangent2: {x: 0, y: 0, z: 0}
  - _type: 0
    position: {x: 738, y: -39, z: 73}
    color: {r: 0, g: 0, b: 0, a: 0}
    normal: {x: 0.57735026, y: 0.57735026, z: 0.57735026}
    size: 1
    tangent: {x: 0, y: 0, z: 0}
    tangent2: {x: 0, y: 0, z: 0}
  - _type: 0
    position: {x: 756, y: -44, z: 69}
    color: {r: 0, g: 0, b: 0, a: 0}
    normal: {x: 0.57735026, y: 0.57735026, z: 0.57735026}
    size: 1
    tangent: {x: 0, y: 0, z: 0}
    tangent2: {x: 0, y: 0, z: 0}
  - _type: 0
    position: {x: 774, y: -31, z: 56}
    color: {r: 0, g: 0, b: 0, a: 0}
    normal: {x: 0.57735026, y: 0.57735026, z: 0.57735026}
    size: 1
    tangent: {x: 0, y: 0, z: 0}
    tangent2: {x: 0, y: 0, z: 0}
  tubeTexture: {fileID: 2800000, guid: 5fcc6bb61ebfa13408a4ea7a41a0f062, type: 3}
  tubeMaterial: {fileID: 2100000, guid: 97f589d651d1a463b97e188d2fdafa73, type: 2}
  tubeAndObstacleInsideLightColor: {r: 0, g: 0.9716981, b: 0.8075498, a: 1}
  tubeAndObstacleOutsideLightColor: {r: 0.9337745, g: 0, b: 1, a: 1}
  obstacleMaterial: {fileID: 2100000, guid: 48787c1fae6464ee38aeb468bc894a8c, type: 2}
  insideObstaclesData:
  - positionOnPath: 0.036031783
    rotationOffset: {x: 0, y: 0, z: 225}
    positionOffset: {x: 0, y: 0}
    speed: 0
    delay: 0
    obstacleType: {fileID: 11400000, guid: 16a77b6d21efc114996054dd6a3a53ac, type: 2}
  - positionOnPath: 0.06
    rotationOffset: {x: 0, y: 0, z: 315}
    positionOffset: {x: 0, y: 0}
    speed: 1
    delay: 0
    obstacleType: {fileID: 11400000, guid: 234677ccffe43a84ba49fe4d9365f767, type: 2}
  - positionOnPath: 0.085745186
    rotationOffset: {x: 0, y: 0, z: 45}
    positionOffset: {x: 0, y: 0}
    speed: 0
    delay: 0
    obstacleType: {fileID: 11400000, guid: 405e95598de27d74a843ab613d0aac51, type: 2}
  - positionOnPath: 0.10138067
    rotationOffset: {x: 0, y: 0, z: 45}
    positionOffset: {x: 0, y: 0}
    speed: 0
    delay: 0
    obstacleType: {fileID: 11400000, guid: aa094fbe005d647c5a079ae729e3bf02, type: 2}
  - positionOnPath: 0.11715067
    rotationOffset: {x: 0, y: 0, z: 45}
    positionOffset: {x: 0, y: 0}
    speed: 1
    delay: 0.2
    obstacleType: {fileID: 11400000, guid: f2337e4f2d843e443b2b805695aab6ed, type: 2}
  - positionOnPath: 0.13564064
    rotationOffset: {x: 0, y: 0, z: 315}
    positionOffset: {x: 0, y: 0}
    speed: 0
    delay: 0
    obstacleType: {fileID: 11400000, guid: 16a77b6d21efc114996054dd6a3a53ac, type: 2}
  - positionOnPath: 0.16
    rotationOffset: {x: 0, y: 0, z: 135}
    positionOffset: {x: 0, y: 0}
    speed: 0
    delay: 0
    obstacleType: {fileID: 11400000, guid: aa094fbe005d647c5a079ae729e3bf02, type: 2}
  - positionOnPath: 0.18377568
    rotationOffset: {x: 0, y: 0, z: 135}
    positionOffset: {x: 0, y: 0}
    speed: 1
    delay: 0.2
    obstacleType: {fileID: 11400000, guid: f2337e4f2d843e443b2b805695aab6ed, type: 2}
  - positionOnPath: 0.19928952
    rotationOffset: {x: 0, y: 0, z: 45}
    positionOffset: {x: 0, y: 0}
    speed: 0
    delay: 0
    obstacleType: {fileID: 11400000, guid: aa094fbe005d647c5a079ae729e3bf02, type: 2}
  - positionOnPath: 0.225
    rotationOffset: {x: 0, y: 0, z: 0}
    positionOffset: {x: 0, y: 0}
    speed: 1
    delay: 0
    obstacleType: {fileID: 11400000, guid: 0696fbd001b712348926fd26dd222b8e, type: 2}
  - positionOnPath: 0.26730558
    rotationOffset: {x: 0, y: 0, z: 225}
    positionOffset: {x: 0, y: 0}
    speed: 1
    delay: 0
    obstacleType: {fileID: 11400000, guid: 5d885db2816ccb74889006499d79ac95, type: 2}
  - positionOnPath: 0.2820046
    rotationOffset: {x: 0, y: 0, z: 135}
    positionOffset: {x: 0, y: 0}
    speed: 0
    delay: 0
    obstacleType: {fileID: 11400000, guid: 230d5dd1bbfee8f498f33da59f26b7b2, type: 2}
  - positionOnPath: 0.29923087
    rotationOffset: {x: 0, y: 0, z: 135}
    positionOffset: {x: 0, y: 0}
    speed: 0
    delay: 0
    obstacleType: {fileID: 11400000, guid: 230d5dd1bbfee8f498f33da59f26b7b2, type: 2}
  - positionOnPath: 0.31631064
    rotationOffset: {x: 0, y: 0, z: 90}
    positionOffset: {x: 0, y: 0}
    speed: 0
    delay: 0
    obstacleType: {fileID: 11400000, guid: 3f74b0f158aad034d85edf0e5fc53696, type: 2}
  - positionOnPath: 0.32920322
    rotationOffset: {x: 0, y: 0, z: 45}
    positionOffset: {x: 0, y: 0}
    speed: 0
    delay: 0
    obstacleType: {fileID: 11400000, guid: e7b8879ccee87f240b933e98e2322b3a, type: 2}
  - positionOnPath: 0.34376276
    rotationOffset: {x: 0, y: 0, z: 315}
    positionOffset: {x: 0, y: 0}
    speed: 0
    delay: 0
    obstacleType: {fileID: 11400000, guid: 5616420dea0420644a1dc3be1e311682, type: 2}
  - positionOnPath: 0.37643227
    rotationOffset: {x: 0, y: 0, z: 0}
    positionOffset: {x: 0, y: 0}
    speed: 0
    delay: 0
    obstacleType: {fileID: 11400000, guid: 405e95598de27d74a843ab613d0aac51, type: 2}
  - positionOnPath: 0.39514807
    rotationOffset: {x: 0, y: 0, z: 270}
    positionOffset: {x: 0, y: 0}
    speed: 1
    delay: 0
    obstacleType: {fileID: 11400000, guid: 3f629b4f3adaebc468e17e818231b20a, type: 2}
  - positionOnPath: 0.4117143
    rotationOffset: {x: 0, y: 0, z: 225}
    positionOffset: {x: 0, y: 0}
    speed: 0
    delay: 0
    obstacleType: {fileID: 11400000, guid: 405e95598de27d74a843ab613d0aac51, type: 2}
  - positionOnPath: 0.42604417
    rotationOffset: {x: 0, y: 0, z: 135}
    positionOffset: {x: 0, y: 0}
    speed: 0
    delay: 0
    obstacleType: {fileID: 11400000, guid: aa094fbe005d647c5a079ae729e3bf02, type: 2}
  - positionOnPath: 0.44293892
    rotationOffset: {x: 0, y: 0, z: 45}
    positionOffset: {x: 0, y: 0}
    speed: 1
    delay: 0
    obstacleType: {fileID: 11400000, guid: 3f629b4f3adaebc468e17e818231b20a, type: 2}
  - positionOnPath: 0.47
    rotationOffset: {x: 0, y: 0, z: 180}
    positionOffset: {x: 0, y: 0}
    speed: 1
    delay: 0
    obstacleType: {fileID: 11400000, guid: 0696fbd001b712348926fd26dd222b8e, type: 2}
  - positionOnPath: 0.4895783
    rotationOffset: {x: 0, y: 0, z: 90}
    positionOffset: {x: 0, y: 0}
    speed: 1
    delay: 0
    obstacleType: {fileID: 11400000, guid: 0696fbd001b712348926fd26dd222b8e, type: 2}
  - positionOnPath: 0.50507563
    rotationOffset: {x: 0, y: 0, z: 270}
    positionOffset: {x: 0, y: 0}
    speed: 0
    delay: 0
    obstacleType: {fileID: 11400000, guid: e7b8879ccee87f240b933e98e2322b3a, type: 2}
  - positionOnPath: 0.51904976
    rotationOffset: {x: 0, y: 0, z: 225}
    positionOffset: {x: 0, y: 0}
    speed: 0
    delay: 0
    obstacleType: {fileID: 11400000, guid: 230d5dd1bbfee8f498f33da59f26b7b2, type: 2}
  - positionOnPath: 0.53536314
    rotationOffset: {x: 0, y: 0, z: 90}
    positionOffset: {x: 0, y: 0}
    speed: 1
    delay: 0
    obstacleType: {fileID: 11400000, guid: 3f629b4f3adaebc468e17e818231b20a, type: 2}
  - positionOnPath: 0.56623703
    rotationOffset: {x: 0, y: 0, z: 225}
    positionOffset: {x: 0, y: 0}
    speed: 0
    delay: 0
    obstacleType: {fileID: 11400000, guid: 5616420dea0420644a1dc3be1e311682, type: 2}
  - positionOnPath: 0.5811583
    rotationOffset: {x: 0, y: 0, z: 0}
    positionOffset: {x: 0, y: 0}
    speed: 1
    delay: 0
    obstacleType: {fileID: 11400000, guid: 5d885db2816ccb74889006499d79ac95, type: 2}
  - positionOnPath: 0.5972598
    rotationOffset: {x: 0, y: 0, z: 0}
    positionOffset: {x: 0, y: 0}
    speed: 1
    delay: 0
    obstacleType: {fileID: 11400000, guid: 5616420dea0420644a1dc3be1e311682, type: 2}
  - positionOnPath: 0.61269575
    rotationOffset: {x: 0, y: 0, z: 270}
    positionOffset: {x: 0, y: 0}
    speed: 0
    delay: 0
    obstacleType: {fileID: 11400000, guid: aa094fbe005d647c5a079ae729e3bf02, type: 2}
  - positionOnPath: 0.6265056
    rotationOffset: {x: 0, y: 0, z: 270}
    positionOffset: {x: 0, y: 0}
    speed: 0
    delay: 0
    obstacleType: {fileID: 11400000, guid: 230d5dd1bbfee8f498f33da59f26b7b2, type: 2}
  - positionOnPath: 0.6399199
    rotationOffset: {x: 0, y: 0, z: 90}
    positionOffset: {x: 0, y: 0}
    speed: 0
    delay: 0
    obstacleType: {fileID: 11400000, guid: 230d5dd1bbfee8f498f33da59f26b7b2, type: 2}
  - positionOnPath: 0.6704929
    rotationOffset: {x: 0, y: 0, z: 90}
    positionOffset: {x: 0, y: 0}
    speed: 0
    delay: 0
    obstacleType: {fileID: 11400000, guid: 405e95598de27d74a843ab613d0aac51, type: 2}
  - positionOnPath: 0.6833183
    rotationOffset: {x: 0, y: 0, z: 90}
    positionOffset: {x: 0, y: 0}
    speed: 1
    delay: 0
    obstacleType: {fileID: 11400000, guid: 230d5dd1bbfee8f498f33da59f26b7b2, type: 2}
  - positionOnPath: 0.6980805
    rotationOffset: {x: 0, y: 0, z: 45}
    positionOffset: {x: 0, y: 0}
    speed: 1
    delay: 0
    obstacleType: {fileID: 11400000, guid: 5d885db2816ccb74889006499d79ac95, type: 2}
  - positionOnPath: 0.7308922
    rotationOffset: {x: 0, y: 0, z: 315}
    positionOffset: {x: 0, y: 0}
    speed: 1
    delay: 0
    obstacleType: {fileID: 11400000, guid: 0696fbd001b712348926fd26dd222b8e, type: 2}
  - positionOnPath: 0.74641705
    rotationOffset: {x: 0, y: 0, z: 45}
    positionOffset: {x: 0, y: 0}
    speed: 0
    delay: 0
    obstacleType: {fileID: 11400000, guid: 16a77b6d21efc114996054dd6a3a53ac, type: 2}
  - positionOnPath: 0.7624225
    rotationOffset: {x: 0, y: 0, z: 135}
    positionOffset: {x: 0, y: 0}
    speed: 1
    delay: 0.2
    obstacleType: {fileID: 11400000, guid: f2337e4f2d843e443b2b805695aab6ed, type: 2}
  - positionOnPath: 0.7807389
    rotationOffset: {x: 0, y: 0, z: 90}
    positionOffset: {x: 0, y: 0}
    speed: 0
    delay: 0
    obstacleType: {fileID: 11400000, guid: e7b8879ccee87f240b933e98e2322b3a, type: 2}
  - positionOnPath: 0.79706854
    rotationOffset: {x: 0, y: 0, z: 0}
    positionOffset: {x: 0, y: 0}
    speed: 1
    delay: 0
    obstacleType: {fileID: 11400000, guid: 234677ccffe43a84ba49fe4d9365f767, type: 2}
  - positionOnPath: 0.8132137
    rotationOffset: {x: 0, y: 0, z: 135}
    positionOffset: {x: 0, y: 0}
    speed: 1
    delay: 0
    obstacleType: {fileID: 11400000, guid: 230d5dd1bbfee8f498f33da59f26b7b2, type: 2}
  - positionOnPath: 0.8284412
    rotationOffset: {x: 0, y: 0, z: 90}
    positionOffset: {x: 0, y: 0}
    speed: 0
    delay: 0
    obstacleType: {fileID: 11400000, guid: 3f74b0f158aad034d85edf0e5fc53696, type: 2}
  - positionOnPath: 0.8446938
    rotationOffset: {x: 0, y: 0, z: 270}
    positionOffset: {x: 0, y: 0}
    speed: 0
    delay: 0
    obstacleType: {fileID: 11400000, guid: e7b8879ccee87f240b933e98e2322b3a, type: 2}
  - positionOnPath: 0.8611376
    rotationOffset: {x: 0, y: 0, z: 225}
    positionOffset: {x: 0, y: 0}
    speed: 1
    delay: 0
    obstacleType: {fileID: 11400000, guid: 16a77b6d21efc114996054dd6a3a53ac, type: 2}
  - positionOnPath: 0.8787479
    rotationOffset: {x: 0, y: 0, z: 270}
    positionOffset: {x: 0, y: 0}
    speed: 1
    delay: 0
    obstacleType: {fileID: 11400000, guid: aa094fbe005d647c5a079ae729e3bf02, type: 2}
  - positionOnPath: 0.89641076
    rotationOffset: {x: 0, y: 0, z: 90}
    positionOffset: {x: 0, y: 0}
    speed: 1
    delay: 0
    obstacleType: {fileID: 11400000, guid: 234677ccffe43a84ba49fe4d9365f767, type: 2}
  - positionOnPath: 0.92
    rotationOffset: {x: 0, y: 0, z: 270}
    positionOffset: {x: 0, y: 0}
    speed: 1
    delay: 0.2
    obstacleType: {fileID: 11400000, guid: f2337e4f2d843e443b2b805695aab6ed, type: 2}
  - positionOnPath: 0.9479492
    rotationOffset: {x: 0, y: 0, z: 45}
    positionOffset: {x: 0, y: 0}
    speed: 0
    delay: 0
    obstacleType: {fileID: 11400000, guid: 230d5dd1bbfee8f498f33da59f26b7b2, type: 2}
  - positionOnPath: 0.9659676
    rotationOffset: {x: 0, y: 0, z: 45}
    positionOffset: {x: 0, y: 0}
    speed: 0
    delay: 0
    obstacleType: {fileID: 11400000, guid: 230d5dd1bbfee8f498f33da59f26b7b2, type: 2}
  - positionOnPath: 0.99
    rotationOffset: {x: 0, y: 0, z: 180}
    positionOffset: {x: 0, y: 0}
    speed: 0
    delay: 0
    obstacleType: {fileID: 11400000, guid: 16a77b6d21efc114996054dd6a3a53ac, type: 2}
  outsideObstaclesData:
  - positionOnPath: 0.036031783
    rotationOffset: {x: 0, y: 0, z: 225}
    positionOffset: {x: 0, y: 0}
    speed: 1
    delay: 0
    obstacleType: {fileID: 11400000, guid: 604269e9238561b4eb5872e6b86ead91, type: 2}
  - positionOnPath: 0.052410975
    rotationOffset: {x: 0, y: 0, z: 135}
    positionOffset: {x: 0, y: 0}
    speed: 1
    delay: 0
    obstacleType: {fileID: 11400000, guid: 604269e9238561b4eb5872e6b86ead91, type: 2}
  - positionOnPath: 0.06913486
    rotationOffset: {x: 0, y: 0, z: 315}
    positionOffset: {x: 0, y: 0}
    speed: 1
    delay: 0
    obstacleType: {fileID: 11400000, guid: cfe5b8fd631fc8b4bba660932dc1761b, type: 2}
  - positionOnPath: 0.085745186
    rotationOffset: {x: 0, y: 0, z: 270}
    positionOffset: {x: 0, y: 0}
    speed: 1
    delay: 0
    obstacleType: {fileID: 11400000, guid: b85818dc12464ce48ad04847e9949039, type: 2}
  - positionOnPath: 0.10138067
    rotationOffset: {x: 0, y: 0, z: 180}
    positionOffset: {x: 0, y: 0}
    speed: 0
    delay: 0
    obstacleType: {fileID: 11400000, guid: 750dc2d22081ec4419ebaddaca063e65, type: 2}
  - positionOnPath: 0.11715067
    rotationOffset: {x: 0, y: 0, z: 90}
    positionOffset: {x: 0, y: 0}
    speed: 0
    delay: 0
    obstacleType: {fileID: 11400000, guid: ee2d408287ce11a418e8a868a4014320, type: 2}
  - positionOnPath: 0.13564064
    rotationOffset: {x: 0, y: 0, z: 180}
    positionOffset: {x: 0, y: 0}
    speed: 0
    delay: 0
    obstacleType: {fileID: 11400000, guid: 750dc2d22081ec4419ebaddaca063e65, type: 2}
  - positionOnPath: 0.15239984
    rotationOffset: {x: 0, y: 0, z: 270}
    positionOffset: {x: 0, y: 0}
    speed: 1
    delay: 0
    obstacleType: {fileID: 11400000, guid: cfe5b8fd631fc8b4bba660932dc1761b, type: 2}
  - positionOnPath: 0.18377568
    rotationOffset: {x: 0, y: 0, z: 315}
    positionOffset: {x: 0, y: 0}
    speed: 0
    delay: 0
    obstacleType: {fileID: 11400000, guid: 750dc2d22081ec4419ebaddaca063e65, type: 2}
  - positionOnPath: 0.19928952
    rotationOffset: {x: 0, y: 0, z: 315}
    positionOffset: {x: 0, y: 0}
    speed: 0
    delay: 0
    obstacleType: {fileID: 11400000, guid: ee2d408287ce11a418e8a868a4014320, type: 2}
  - positionOnPath: 0.21716297
    rotationOffset: {x: 0, y: 0, z: 135}
    positionOffset: {x: 0, y: 0}
    speed: 1
    delay: 0
    obstacleType: {fileID: 11400000, guid: 3bf1b645921bce94f88752b82bfbf93c, type: 2}
  - positionOnPath: 0.23291217
    rotationOffset: {x: 0, y: 0, z: 270}
    positionOffset: {x: 0, y: 0}
    speed: 0
    delay: 0
    obstacleType: {fileID: 11400000, guid: 148cf7450a4f0584aad5f7d2d85e953a, type: 2}
  - positionOnPath: 0.25079268
    rotationOffset: {x: 0, y: 0, z: 180}
    positionOffset: {x: 0, y: 0}
    speed: 0
    delay: 0
    obstacleType: {fileID: 11400000, guid: ee2d408287ce11a418e8a868a4014320, type: 2}
  - positionOnPath: 0.26730558
    rotationOffset: {x: 0, y: 0, z: 270}
    positionOffset: {x: 0, y: 0}
    speed: 1
    delay: 0
    obstacleType: {fileID: 11400000, guid: cfe5b8fd631fc8b4bba660932dc1761b, type: 2}
  - positionOnPath: 0.2820046
    rotationOffset: {x: 0, y: 0, z: 45}
    positionOffset: {x: 0, y: 0}
    speed: 1
    delay: 1
    obstacleType: {fileID: 11400000, guid: b85818dc12464ce48ad04847e9949039, type: 2}
  - positionOnPath: 0.29923087
    rotationOffset: {x: 0, y: 0, z: 0}
    positionOffset: {x: 0, y: 0}
    speed: 1
    delay: 0
    obstacleType: {fileID: 11400000, guid: 604269e9238561b4eb5872e6b86ead91, type: 2}
  - positionOnPath: 0.325
    rotationOffset: {x: 0, y: 0, z: 180}
    positionOffset: {x: 0, y: 0}
    speed: 1
    delay: 0
    obstacleType: {fileID: 11400000, guid: 604269e9238561b4eb5872e6b86ead91, type: 2}
  - positionOnPath: 0.35804328
    rotationOffset: {x: 0, y: 0, z: 225}
    positionOffset: {x: 0, y: 0}
    speed: 1
    delay: 0
    obstacleType: {fileID: 11400000, guid: 604269e9238561b4eb5872e6b86ead91, type: 2}
  - positionOnPath: 0.37643227
    rotationOffset: {x: 0, y: 0, z: 0}
    positionOffset: {x: 0, y: 0}
    speed: 1
    delay: 0
    obstacleType: {fileID: 11400000, guid: dce99673ce07a4d459d4a7581f383c77, type: 2}
  - positionOnPath: 0.39514807
    rotationOffset: {x: 0, y: 0, z: 315}
    positionOffset: {x: 0, y: 0}
    speed: 1
    delay: 0
    obstacleType: {fileID: 11400000, guid: b85818dc12464ce48ad04847e9949039, type: 2}
  - positionOnPath: 0.4117143
    rotationOffset: {x: 0, y: 0, z: 0}
    positionOffset: {x: 0, y: 0}
    speed: 1
    delay: 0
    obstacleType: {fileID: 11400000, guid: cfe5b8fd631fc8b4bba660932dc1761b, type: 2}
  - positionOnPath: 0.42604417
    rotationOffset: {x: 0, y: 0, z: 225}
    positionOffset: {x: 0, y: 0}
    speed: 0
    delay: 0
    obstacleType: {fileID: 11400000, guid: 148cf7450a4f0584aad5f7d2d85e953a, type: 2}
  - positionOnPath: 0.44293892
    rotationOffset: {x: 0, y: 0, z: 45}
    positionOffset: {x: 0, y: 0}
    speed: 1
    delay: 0
    obstacleType: {fileID: 11400000, guid: 3bf1b645921bce94f88752b82bfbf93c, type: 2}
  - positionOnPath: 0.459565
    rotationOffset: {x: 0, y: 0, z: 45}
    positionOffset: {x: 0, y: 0}
    speed: 0
    delay: 0
    obstacleType: {fileID: 11400000, guid: ee2d408287ce11a418e8a868a4014320, type: 2}
  - positionOnPath: 0.47311947
    rotationOffset: {x: 0, y: 0, z: 0}
    positionOffset: {x: 0, y: 0}
    speed: 0
    delay: 0
    obstacleType: {fileID: 11400000, guid: b877eb5ec629fa34da49a0e126ea8469, type: 2}
  - positionOnPath: 0.4895783
    rotationOffset: {x: 0, y: 0, z: 0}
    positionOffset: {x: 0, y: 0}
    speed: 1
    delay: 0
    obstacleType: {fileID: 11400000, guid: b85818dc12464ce48ad04847e9949039, type: 2}
  - positionOnPath: 0.50507563
    rotationOffset: {x: 0, y: 0, z: 180}
    positionOffset: {x: 0, y: 0}
    speed: 0
    delay: 0
    obstacleType: {fileID: 11400000, guid: 148cf7450a4f0584aad5f7d2d85e953a, type: 2}
  - positionOnPath: 0.51904976
    rotationOffset: {x: 0, y: 0, z: 90}
    positionOffset: {x: 0, y: 0}
    speed: 0
    delay: 0
    obstacleType: {fileID: 11400000, guid: b877eb5ec629fa34da49a0e126ea8469, type: 2}
  - positionOnPath: 0.53536314
    rotationOffset: {x: 0, y: 0, z: 90}
    positionOffset: {x: 0, y: 0}
    speed: 0
    delay: 0
    obstacleType: {fileID: 11400000, guid: 750dc2d22081ec4419ebaddaca063e65, type: 2}
  - positionOnPath: 0.5515409
    rotationOffset: {x: 0, y: 0, z: 90}
    positionOffset: {x: 0, y: 0}
    speed: 1
    delay: 0
    obstacleType: {fileID: 11400000, guid: 604269e9238561b4eb5872e6b86ead91, type: 2}
  - positionOnPath: 0.56623703
    rotationOffset: {x: 0, y: 0, z: 225}
    positionOffset: {x: 0, y: 0}
    speed: 0
    delay: 0
    obstacleType: {fileID: 11400000, guid: 750dc2d22081ec4419ebaddaca063e65, type: 2}
  - positionOnPath: 0.5811583
    rotationOffset: {x: 0, y: 0, z: 0}
    positionOffset: {x: 0, y: 0}
    speed: 1
    delay: 0
    obstacleType: {fileID: 11400000, guid: b85818dc12464ce48ad04847e9949039, type: 2}
  - positionOnPath: 0.5972598
    rotationOffset: {x: 0, y: 0, z: 270}
    positionOffset: {x: 0, y: 0}
    speed: 0
    delay: 0
    obstacleType: {fileID: 11400000, guid: 148cf7450a4f0584aad5f7d2d85e953a, type: 2}
  - positionOnPath: 0.61269575
    rotationOffset: {x: 0, y: 0, z: 315}
    positionOffset: {x: 0, y: 0}
    speed: 0
    delay: 0
    obstacleType: {fileID: 11400000, guid: 750dc2d22081ec4419ebaddaca063e65, type: 2}
  - positionOnPath: 0.6265056
    rotationOffset: {x: 0, y: 0, z: 270}
    positionOffset: {x: 0, y: 0}
    speed: 1
    delay: 0
    obstacleType: {fileID: 11400000, guid: b85818dc12464ce48ad04847e9949039, type: 2}
  - positionOnPath: 0.6555994
    rotationOffset: {x: 0, y: 0, z: 180}
    positionOffset: {x: 0, y: 0}
    speed: 1
    delay: 0
    obstacleType: {fileID: 11400000, guid: 3bf1b645921bce94f88752b82bfbf93c, type: 2}
  - positionOnPath: 0.6704929
    rotationOffset: {x: 0, y: 0, z: 90}
    positionOffset: {x: 0, y: 0}
    speed: 1
    delay: 0
    obstacleType: {fileID: 11400000, guid: dce99673ce07a4d459d4a7581f383c77, type: 2}
  - positionOnPath: 0.6833183
    rotationOffset: {x: 0, y: 0, z: 90}
    positionOffset: {x: 0, y: 0}
    speed: 0
    delay: 0
    obstacleType: {fileID: 11400000, guid: 148cf7450a4f0584aad5f7d2d85e953a, type: 2}
  - positionOnPath: 0.6980805
    rotationOffset: {x: 0, y: 0, z: 270}
    positionOffset: {x: 0, y: 0}
    speed: 1
    delay: 0
    obstacleType: {fileID: 11400000, guid: cfe5b8fd631fc8b4bba660932dc1761b, type: 2}
  - positionOnPath: 0.71573055
    rotationOffset: {x: 0, y: 0, z: 180}
    positionOffset: {x: 0, y: 0}
    speed: 0
    delay: 0
    obstacleType: {fileID: 11400000, guid: ee2d408287ce11a418e8a868a4014320, type: 2}
  - positionOnPath: 0.7308922
    rotationOffset: {x: 0, y: 0, z: 180}
    positionOffset: {x: 0, y: 0}
    speed: 1
    delay: 0
    obstacleType: {fileID: 11400000, guid: b85818dc12464ce48ad04847e9949039, type: 2}
  - positionOnPath: 0.74641705
    rotationOffset: {x: 0, y: 0, z: 315}
    positionOffset: {x: 0, y: 0}
    speed: 0
    delay: 0
    obstacleType: {fileID: 11400000, guid: 750dc2d22081ec4419ebaddaca063e65, type: 2}
  - positionOnPath: 0.7624225
    rotationOffset: {x: 0, y: 0, z: 225}
    positionOffset: {x: 0, y: 0}
    speed: 0
    delay: 0
    obstacleType: {fileID: 11400000, guid: ee2d408287ce11a418e8a868a4014320, type: 2}
  - positionOnPath: 0.7807389
    rotationOffset: {x: 0, y: 0, z: 180}
    positionOffset: {x: 0, y: 0}
    speed: 0
    delay: 0
    obstacleType: {fileID: 11400000, guid: 148cf7450a4f0584aad5f7d2d85e953a, type: 2}
  - positionOnPath: 0.79706854
    rotationOffset: {x: 0, y: 0, z: 90}
    positionOffset: {x: 0, y: 0}
    speed: 0
    delay: 0
    obstacleType: {fileID: 11400000, guid: b877eb5ec629fa34da49a0e126ea8469, type: 2}
  - positionOnPath: 0.8284412
    rotationOffset: {x: 0, y: 0, z: 270}
    positionOffset: {x: 0, y: 0}
    speed: 0
    delay: 0
    obstacleType: {fileID: 11400000, guid: ee2d408287ce11a418e8a868a4014320, type: 2}
  - positionOnPath: 0.8446938
    rotationOffset: {x: 0, y: 0, z: 225}
    positionOffset: {x: 0, y: 0}
    speed: 1
    delay: 1
    obstacleType: {fileID: 11400000, guid: b85818dc12464ce48ad04847e9949039, type: 2}
  - positionOnPath: 0.8787479
    rotationOffset: {x: 0, y: 0, z: 90}
    positionOffset: {x: 0, y: 0}
    speed: 0
    delay: 0
    obstacleType: {fileID: 11400000, guid: ee2d408287ce11a418e8a868a4014320, type: 2}
  - positionOnPath: 0.89641076
    rotationOffset: {x: 0, y: 0, z: 270}
    positionOffset: {x: 0, y: 0}
    speed: 0
    delay: 0
    obstacleType: {fileID: 11400000, guid: 148cf7450a4f0584aad5f7d2d85e953a, type: 2}
  - positionOnPath: 0.914207
    rotationOffset: {x: 0, y: 0, z: 45}
    positionOffset: {x: 0, y: 0}
    speed: 1
    delay: 0
    obstacleType: {fileID: 11400000, guid: b85818dc12464ce48ad04847e9949039, type: 2}
  - positionOnPath: 0.9304133
    rotationOffset: {x: 0, y: 0, z: 135}
    positionOffset: {x: 0, y: 0}
    speed: 0
    delay: 0
    obstacleType: {fileID: 11400000, guid: b877eb5ec629fa34da49a0e126ea8469, type: 2}
  - positionOnPath: 0.94794905
    rotationOffset: {x: 0, y: 0, z: 45}
    positionOffset: {x: 0, y: 0}
    speed: 1
    delay: 1
    obstacleType: {fileID: 11400000, guid: b85818dc12464ce48ad04847e9949039, type: 2}
  - positionOnPath: 0.9659674
    rotationOffset: {x: 0, y: 0, z: 315}
    positionOffset: {x: 0, y: 0}
    speed: 1
    delay: 0
    obstacleType: {fileID: 11400000, guid: dce99673ce07a4d459d4a7581f383c77, type: 2}
  - positionOnPath: 0.99
    rotationOffset: {x: 0, y: 0, z: 90}
    positionOffset: {x: 0, y: 0}
    speed: 0
    delay: 0
    obstacleType: {fileID: 11400000, guid: b877eb5ec629fa34da49a0e126ea8469, type: 2}
  _insideVFXObjects: []
  _outsideVFXObjects: []
