%YAML 1.1
%TAG !u! tag:unity3d.com,2011:
--- !u!114 &11400000
MonoBehaviour:
  m_ObjectHideFlags: 0
  m_CorrespondingSourceObject: {fileID: 0}
  m_PrefabInstance: {fileID: 0}
  m_PrefabAsset: {fileID: 0}
  m_GameObject: {fileID: 0}
  m_Enabled: 1
  m_EditorHideFlags: 0
  m_Script: {fileID: 11500000, guid: 8b7b0ee2e7a4de24e80a1eb21b48dc89, type: 3}
  m_Name: Level_7
  m_EditorClassIdentifier: 
  id: e085a08c4d11e48c2b8e7c641ca04029
  tubePoints:
  - _type: 0
    position: {x: 0, y: 0, z: 0}
    color: {r: 0, g: 0, b: 0, a: 0}
    normal: {x: 0, y: 1, z: 0}
    size: 1
    tangent: {x: 0, y: 0, z: 0}
    tangent2: {x: 0, y: 0, z: 0}
  - _type: 0
    position: {x: 50, y: -2, z: -2}
    color: {r: 0, g: 0, b: 0, a: 0}
    normal: {x: 0, y: 1, z: 0}
    size: 1
    tangent: {x: 0, y: 0, z: 0}
    tangent2: {x: 0, y: 0, z: 0}
  - _type: 0
    position: {x: 100, y: -1, z: -1}
    color: {r: 0, g: 0, b: 0, a: 0}
    normal: {x: 0, y: 1, z: 0}
    size: 1
    tangent: {x: 0, y: 0, z: 0}
    tangent2: {x: 0, y: 0, z: 0}
  - _type: 0
    position: {x: 150, y: 19, z: 19}
    color: {r: 0, g: 0, b: 0, a: 0}
    normal: {x: 0, y: 1, z: 0}
    size: 1
    tangent: {x: 0, y: 0, z: 0}
    tangent2: {x: 0, y: 0, z: 0}
  - _type: 0
    position: {x: 200, y: 0, z: 0}
    color: {r: 0, g: 0, b: 0, a: 0}
    normal: {x: 0, y: 1, z: 0}
    size: 1
    tangent: {x: 0, y: 0, z: 0}
    tangent2: {x: 0, y: 0, z: 0}
  - _type: 0
    position: {x: 250, y: -5, z: -5}
    color: {r: 0, g: 0, b: 0, a: 0}
    normal: {x: 0, y: 1, z: 0}
    size: 1
    tangent: {x: 0, y: 0, z: 0}
    tangent2: {x: 0, y: 0, z: 0}
  - _type: 0
    position: {x: 300, y: 10, z: 10}
    color: {r: 0, g: 0, b: 0, a: 0}
    normal: {x: 0, y: 1, z: 0}
    size: 1
    tangent: {x: 0, y: 0, z: 0}
    tangent2: {x: 0, y: 0, z: 0}
  tubeTexture: {fileID: 2800000, guid: 2797d2850c75e91499e3c9eb76e3b43c, type: 3}
  tubeMaterial: {fileID: 2100000, guid: 29930e25242ac4b73ad74e7cca4f5d9c, type: 2}
  tubeAndObstacleInsideLightColor: {r: 0.9339623, g: 0, b: 0.62788177, a: 1}
  tubeAndObstacleOutsideLightColor: {r: 0.98039216, g: 0.6862745, b: 0, a: 1}
  obstacleMaterial: {fileID: 2100000, guid: 48787c1fae6464ee38aeb468bc894a8c, type: 2}
  insideObstaclesData:
  - positionOnPath: 0.11974462
    rotationOffset: {x: 0, y: 0, z: 0}
    positionOffset: {x: 0, y: 0}
    speed: 0
    delay: 0
    obstacleType: {fileID: 11400000, guid: 16a77b6d21efc114996054dd6a3a53ac, type: 2}
  - positionOnPath: 0.199682
    rotationOffset: {x: 0, y: 0, z: 135}
    positionOffset: {x: 0, y: 0}
    speed: 0
    delay: 0
    obstacleType: {fileID: 11400000, guid: 3f74b0f158aad034d85edf0e5fc53696, type: 2}
  - positionOnPath: 0.328946
    rotationOffset: {x: 0, y: 0, z: 315}
    positionOffset: {x: 0, y: 0}
    speed: 0
    delay: 0
    obstacleType: {fileID: 11400000, guid: 405e95598de27d74a843ab613d0aac51, type: 2}
  - positionOnPath: 0.40569934
    rotationOffset: {x: 0, y: 0, z: 270}
    positionOffset: {x: 0, y: 0}
    speed: 0
    delay: 0
    obstacleType: {fileID: 11400000, guid: aa094fbe005d647c5a079ae729e3bf02, type: 2}
  - positionOnPath: 0.46931872
    rotationOffset: {x: 0, y: 0, z: 45}
    positionOffset: {x: 0, y: 0}
    speed: 0
    delay: 0
    obstacleType: {fileID: 11400000, guid: 5616420dea0420644a1dc3be1e311682, type: 2}
  - positionOnPath: 0.5630665
    rotationOffset: {x: 0, y: 0, z: 135}
    positionOffset: {x: 0, y: 0}
    speed: 0
    delay: 0
    obstacleType: {fileID: 11400000, guid: 405e95598de27d74a843ab613d0aac51, type: 2}
  - positionOnPath: 0.6573602
    rotationOffset: {x: 0, y: 0, z: 315}
    positionOffset: {x: 0, y: 0}
    speed: 0
    delay: 0
    obstacleType: {fileID: 11400000, guid: aa094fbe005d647c5a079ae729e3bf02, type: 2}
  - positionOnPath: 0.72102535
    rotationOffset: {x: 0, y: 0, z: 180}
    positionOffset: {x: 0, y: 0}
    speed: 0
    delay: 0
    obstacleType: {fileID: 11400000, guid: 16a77b6d21efc114996054dd6a3a53ac, type: 2}
  - positionOnPath: 0.81685716
    rotationOffset: {x: 0, y: 0, z: 0}
    positionOffset: {x: 0, y: 0}
    speed: 0
    delay: 0
    obstacleType: {fileID: 11400000, guid: 3f74b0f158aad034d85edf0e5fc53696, type: 2}
  - positionOnPath: 0.88144404
    rotationOffset: {x: 0, y: 0, z: 315}
    positionOffset: {x: 0, y: 0}
    speed: 0
    delay: 0
    obstacleType: {fileID: 11400000, guid: 5616420dea0420644a1dc3be1e311682, type: 2}
  - positionOnPath: 0.9832765
    rotationOffset: {x: 0, y: 0, z: 135}
    positionOffset: {x: 0, y: 0}
    speed: 0
    delay: 0
    obstacleType: {fileID: 11400000, guid: 405e95598de27d74a843ab613d0aac51, type: 2}
  outsideObstaclesData:
  - positionOnPath: 0.10975952
    rotationOffset: {x: 0, y: 0, z: 315}
    positionOffset: {x: 0, y: 0}
    speed: 0
    delay: 0
    obstacleType: {fileID: 11400000, guid: b877eb5ec629fa34da49a0e126ea8469, type: 2}
  - positionOnPath: 0.18636884
    rotationOffset: {x: 0, y: 0, z: 0}
    positionOffset: {x: 0, y: 0}
    speed: 0
    delay: 0
    obstacleType: {fileID: 11400000, guid: ee2d408287ce11a418e8a868a4014320, type: 2}
  - positionOnPath: 0.26293582
    rotationOffset: {x: 0, y: 0, z: 180}
    positionOffset: {x: 0, y: 0}
    speed: 0
    delay: 0
    obstacleType: {fileID: 11400000, guid: 750dc2d22081ec4419ebaddaca063e65, type: 2}
  - positionOnPath: 0.3384959
    rotationOffset: {x: 0, y: 0, z: 0}
    positionOffset: {x: 0, y: 0}
    speed: 0
    delay: 0
    obstacleType: {fileID: 11400000, guid: 148cf7450a4f0584aad5f7d2d85e953a, type: 2}
  - positionOnPath: 0.4295286
    rotationOffset: {x: 0, y: 0, z: 90}
    positionOffset: {x: 0, y: 0}
    speed: 0
    delay: 0
    obstacleType: {fileID: 11400000, guid: 148cf7450a4f0584aad5f7d2d85e953a, type: 2}
  - positionOnPath: 0.5338531
    rotationOffset: {x: 0, y: 0, z: 90}
    positionOffset: {x: 0, y: 0}
    speed: 0
    delay: 0
    obstacleType: {fileID: 11400000, guid: 750dc2d22081ec4419ebaddaca063e65, type: 2}
  - positionOnPath: 0.6255164
    rotationOffset: {x: 0, y: 0, z: 225}
    positionOffset: {x: 0, y: 0}
    speed: 0
    delay: 0
    obstacleType: {fileID: 11400000, guid: b877eb5ec629fa34da49a0e126ea8469, type: 2}
  - positionOnPath: 0.7340384
    rotationOffset: {x: 0, y: 0, z: 0}
    positionOffset: {x: 0, y: 0}
    speed: 0
    delay: 0
    obstacleType: {fileID: 11400000, guid: ee2d408287ce11a418e8a868a4014320, type: 2}
  - positionOnPath: 0.85300875
    rotationOffset: {x: 0, y: 0, z: 0}
    positionOffset: {x: 0, y: 0}
    speed: 0
    delay: 0
    obstacleType: {fileID: 11400000, guid: 148cf7450a4f0584aad5f7d2d85e953a, type: 2}
  - positionOnPath: 0.9445679
    rotationOffset: {x: 0, y: 0, z: 315}
    positionOffset: {x: 0, y: 0}
    speed: 0
    delay: 0
    obstacleType: {fileID: 11400000, guid: b877eb5ec629fa34da49a0e126ea8469, type: 2}
