%YAML 1.1
%TAG !u! tag:unity3d.com,2011:
--- !u!114 &11400000
MonoBehaviour:
  m_ObjectHideFlags: 0
  m_CorrespondingSourceObject: {fileID: 0}
  m_PrefabInstance: {fileID: 0}
  m_PrefabAsset: {fileID: 0}
  m_GameObject: {fileID: 0}
  m_Enabled: 1
  m_EditorHideFlags: 0
  m_Script: {fileID: 11500000, guid: 8b7b0ee2e7a4de24e80a1eb21b48dc89, type: 3}
  m_Name: Level_20
  m_EditorClassIdentifier: 
  id: a0da4941c184b40a4b3cb2e5f80be972
  tubePoints:
  - _type: 0
    position: {x: 0, y: 0, z: 0}
    color: {r: 0, g: 0, b: 0, a: 0}
    normal: {x: 0, y: 1, z: 0}
    size: 1
    tangent: {x: 0, y: 0, z: 0}
    tangent2: {x: 0, y: 0, z: 0}
  - _type: 0
    position: {x: 50, y: 10, z: 10}
    color: {r: 0, g: 0, b: 0, a: 0}
    normal: {x: 0, y: 1, z: 0}
    size: 1
    tangent: {x: 0, y: 0, z: 0}
    tangent2: {x: 0, y: 0, z: 0}
  - _type: 0
    position: {x: 100, y: 32, z: 32}
    color: {r: 0, g: 0, b: 0, a: 0}
    normal: {x: 0, y: 1, z: 0}
    size: 1
    tangent: {x: 0, y: 0, z: 0}
    tangent2: {x: 0, y: 0, z: 0}
  - _type: 0
    position: {x: 150, y: 31, z: 31}
    color: {r: 0, g: 0, b: 0, a: 0}
    normal: {x: 0, y: 1, z: 0}
    size: 1
    tangent: {x: 0, y: 0, z: 0}
    tangent2: {x: 0, y: 0, z: 0}
  - _type: 0
    position: {x: 200, y: 21, z: 21}
    color: {r: 0, g: 0, b: 0, a: 0}
    normal: {x: 0, y: 1, z: 0}
    size: 1
    tangent: {x: 0, y: 0, z: 0}
    tangent2: {x: 0, y: 0, z: 0}
  - _type: 0
    position: {x: 250, y: 1, z: 1}
    color: {r: 0, g: 0, b: 0, a: 0}
    normal: {x: 0, y: 1, z: 0}
    size: 1
    tangent: {x: 0, y: 0, z: 0}
    tangent2: {x: 0, y: 0, z: 0}
  - _type: 0
    position: {x: 300, y: 0, z: 0}
    color: {r: 0, g: 0, b: 0, a: 0}
    normal: {x: 0, y: 1, z: 0}
    size: 1
    tangent: {x: 0, y: 0, z: 0}
    tangent2: {x: 0, y: 0, z: 0}
  - _type: 0
    position: {x: 350, y: -19, z: -19}
    color: {r: 0, g: 0, b: 0, a: 0}
    normal: {x: 0, y: 1, z: 0}
    size: 1
    tangent: {x: 0, y: 0, z: 0}
    tangent2: {x: 0, y: 0, z: 0}
  - _type: 0
    position: {x: 400, y: -25, z: -25}
    color: {r: 0, g: 0, b: 0, a: 0}
    normal: {x: 0, y: 1, z: 0}
    size: 1
    tangent: {x: 0, y: 0, z: 0}
    tangent2: {x: 0, y: 0, z: 0}
  - _type: 0
    position: {x: 450, y: -34, z: -34}
    color: {r: 0, g: 0, b: 0, a: 0}
    normal: {x: 0, y: 1, z: 0}
    size: 1
    tangent: {x: 0, y: 0, z: 0}
    tangent2: {x: 0, y: 0, z: 0}
  - _type: 0
    position: {x: 500, y: -24, z: -24}
    color: {r: 0, g: 0, b: 0, a: 0}
    normal: {x: 0, y: 1, z: 0}
    size: 1
    tangent: {x: 0, y: 0, z: 0}
    tangent2: {x: 0, y: 0, z: 0}
  - _type: 0
    position: {x: 550, y: -25, z: -25}
    color: {r: 0, g: 0, b: 0, a: 0}
    normal: {x: 0, y: 1, z: 0}
    size: 1
    tangent: {x: 0, y: 0, z: 0}
    tangent2: {x: 0, y: 0, z: 0}
  - _type: 0
    position: {x: 600, y: -13, z: -13}
    color: {r: 0, g: 0, b: 0, a: 0}
    normal: {x: 0, y: 1, z: 0}
    size: 1
    tangent: {x: 0, y: 0, z: 0}
    tangent2: {x: 0, y: 0, z: 0}
  - _type: 0
    position: {x: 650, y: -21, z: -21}
    color: {r: 0, g: 0, b: 0, a: 0}
    normal: {x: 0, y: 1, z: 0}
    size: 1
    tangent: {x: 0, y: 0, z: 0}
    tangent2: {x: 0, y: 0, z: 0}
  - _type: 0
    position: {x: 700, y: -41, z: -41}
    color: {r: 0, g: 0, b: 0, a: 0}
    normal: {x: 0, y: 1, z: 0}
    size: 1
    tangent: {x: 0, y: 0, z: 0}
    tangent2: {x: 0, y: 0, z: 0}
  - _type: 0
    position: {x: 750, y: -27, z: -27}
    color: {r: 0, g: 0, b: 0, a: 0}
    normal: {x: 0, y: 1, z: 0}
    size: 1
    tangent: {x: 0, y: 0, z: 0}
    tangent2: {x: 0, y: 0, z: 0}
  - _type: 0
    position: {x: 800, y: -12, z: -12}
    color: {r: 0, g: 0, b: 0, a: 0}
    normal: {x: 0, y: 1, z: 0}
    size: 1
    tangent: {x: 0, y: 0, z: 0}
    tangent2: {x: 0, y: 0, z: 0}
  - _type: 0
    position: {x: 850, y: -21, z: -21}
    color: {r: 0, g: 0, b: 0, a: 0}
    normal: {x: 0, y: 1, z: 0}
    size: 1
    tangent: {x: 0, y: 0, z: 0}
    tangent2: {x: 0, y: 0, z: 0}
  - _type: 0
    position: {x: 900, y: -16, z: -16}
    color: {r: 0, g: 0, b: 0, a: 0}
    normal: {x: 0, y: 1, z: 0}
    size: 1
    tangent: {x: 0, y: 0, z: 0}
    tangent2: {x: 0, y: 0, z: 0}
  - _type: 0
    position: {x: 950, y: 4, z: 4}
    color: {r: 0, g: 0, b: 0, a: 0}
    normal: {x: 0, y: 1, z: 0}
    size: 1
    tangent: {x: 0, y: 0, z: 0}
    tangent2: {x: 0, y: 0, z: 0}
  - _type: 0
    position: {x: 1000, y: -1, z: -1}
    color: {r: 0, g: 0, b: 0, a: 0}
    normal: {x: 0, y: 1, z: 0}
    size: 1
    tangent: {x: 0, y: 0, z: 0}
    tangent2: {x: 0, y: 0, z: 0}
  tubeTexture: {fileID: 2800000, guid: 2797d2850c75e91499e3c9eb76e3b43c, type: 3}
  tubeMaterial: {fileID: 2100000, guid: 29930e25242ac4b73ad74e7cca4f5d9c, type: 2}
  tubeAndObstacleInsideLightColor: {r: 0.5226469, g: 0.26352793, b: 0.8867924, a: 1}
  tubeAndObstacleOutsideLightColor: {r: 0.19339621, g: 0.3106351, b: 1, a: 1}
  obstacleMaterial: {fileID: 2100000, guid: 48787c1fae6464ee38aeb468bc894a8c, type: 2}
  insideObstaclesData:
  - positionOnPath: 0.03012585
    rotationOffset: {x: 0, y: 0, z: 45}
    positionOffset: {x: 0, y: 0}
    speed: 0
    delay: 0
    obstacleType: {fileID: 11400000, guid: 405e95598de27d74a843ab613d0aac51, type: 2}
  - positionOnPath: 0.06449231
    rotationOffset: {x: 0, y: 0, z: 90}
    positionOffset: {x: 0, y: 0}
    speed: 1
    delay: 0.2
    obstacleType: {fileID: 11400000, guid: f2337e4f2d843e443b2b805695aab6ed, type: 2}
  - positionOnPath: 0.09335159
    rotationOffset: {x: 0, y: 0, z: 45}
    positionOffset: {x: 0, y: 0}
    speed: 1
    delay: 0
    obstacleType: {fileID: 11400000, guid: 5d885db2816ccb74889006499d79ac95, type: 2}
  - positionOnPath: 0.12659606
    rotationOffset: {x: 0, y: 0, z: 225}
    positionOffset: {x: 0, y: 0}
    speed: 0
    delay: 0
    obstacleType: {fileID: 11400000, guid: 5616420dea0420644a1dc3be1e311682, type: 2}
  - positionOnPath: 0.14639121
    rotationOffset: {x: 0, y: 0, z: 0}
    positionOffset: {x: 0, y: 0}
    speed: 0
    delay: 0
    obstacleType: {fileID: 11400000, guid: aa094fbe005d647c5a079ae729e3bf02, type: 2}
  - positionOnPath: 0.16701809
    rotationOffset: {x: 0, y: 0, z: 0}
    positionOffset: {x: 0, y: 0}
    speed: 0
    delay: 0
    obstacleType: {fileID: 11400000, guid: 16a77b6d21efc114996054dd6a3a53ac, type: 2}
  - positionOnPath: 0.19746138
    rotationOffset: {x: 0, y: 0, z: 135}
    positionOffset: {x: 0, y: 0}
    speed: 1
    delay: 0
    obstacleType: {fileID: 11400000, guid: 3f629b4f3adaebc468e17e818231b20a, type: 2}
  - positionOnPath: 0.21591482
    rotationOffset: {x: 0, y: 0, z: 135}
    positionOffset: {x: 0, y: 0}
    speed: 1
    delay: 0
    obstacleType: {fileID: 11400000, guid: 234677ccffe43a84ba49fe4d9365f767, type: 2}
  - positionOnPath: 0.23261915
    rotationOffset: {x: 0, y: 0, z: 90}
    positionOffset: {x: 0, y: 0}
    speed: 0
    delay: 0
    obstacleType: {fileID: 11400000, guid: 5616420dea0420644a1dc3be1e311682, type: 2}
  - positionOnPath: 0.2624854
    rotationOffset: {x: 0, y: 0, z: 135}
    positionOffset: {x: 0, y: 0}
    speed: 1
    delay: 0
    obstacleType: {fileID: 11400000, guid: 5d885db2816ccb74889006499d79ac95, type: 2}
  - positionOnPath: 0.28641412
    rotationOffset: {x: 0, y: 0, z: 0}
    positionOffset: {x: 0, y: 0}
    speed: 0
    delay: 0
    obstacleType: {fileID: 11400000, guid: 16a77b6d21efc114996054dd6a3a53ac, type: 2}
  - positionOnPath: 0.31306955
    rotationOffset: {x: 0, y: 0, z: 0}
    positionOffset: {x: 0, y: 0}
    speed: 1
    delay: 0.2
    obstacleType: {fileID: 11400000, guid: f2337e4f2d843e443b2b805695aab6ed, type: 2}
  - positionOnPath: 0.34387136
    rotationOffset: {x: 0, y: 0, z: 135}
    positionOffset: {x: 0, y: 0}
    speed: 0
    delay: 0
    obstacleType: {fileID: 11400000, guid: 405e95598de27d74a843ab613d0aac51, type: 2}
  - positionOnPath: 0.36782175
    rotationOffset: {x: 0, y: 0, z: 225}
    positionOffset: {x: 0, y: 0}
    speed: 1
    delay: 0
    obstacleType: {fileID: 11400000, guid: 234677ccffe43a84ba49fe4d9365f767, type: 2}
  - positionOnPath: 0.38967088
    rotationOffset: {x: 0, y: 0, z: 135}
    positionOffset: {x: 0, y: 0}
    speed: 0
    delay: 0
    obstacleType: {fileID: 11400000, guid: aa094fbe005d647c5a079ae729e3bf02, type: 2}
  - positionOnPath: 0.4196312
    rotationOffset: {x: 0, y: 0, z: 45}
    positionOffset: {x: 0, y: 0}
    speed: 1
    delay: 0
    obstacleType: {fileID: 11400000, guid: 3f629b4f3adaebc468e17e818231b20a, type: 2}
  - positionOnPath: 0.45271644
    rotationOffset: {x: 0, y: 0, z: 0}
    positionOffset: {x: 0, y: 0}
    speed: 0
    delay: 0
    obstacleType: {fileID: 11400000, guid: 405e95598de27d74a843ab613d0aac51, type: 2}
  - positionOnPath: 0.47759172
    rotationOffset: {x: 0, y: 0, z: 270}
    positionOffset: {x: 0, y: 0}
    speed: 1
    delay: 0
    obstacleType: {fileID: 11400000, guid: 5d885db2816ccb74889006499d79ac95, type: 2}
  - positionOnPath: 0.5065129
    rotationOffset: {x: 0, y: 0, z: 45}
    positionOffset: {x: 0, y: 0}
    speed: 1
    delay: 0.2
    obstacleType: {fileID: 11400000, guid: f2337e4f2d843e443b2b805695aab6ed, type: 2}
  - positionOnPath: 0.5413989
    rotationOffset: {x: 0, y: 0, z: 225}
    positionOffset: {x: 0, y: 0}
    speed: 0
    delay: 0
    obstacleType: {fileID: 11400000, guid: 16a77b6d21efc114996054dd6a3a53ac, type: 2}
  - positionOnPath: 0.5655794
    rotationOffset: {x: 0, y: 0, z: 315}
    positionOffset: {x: 0, y: 0}
    speed: 0
    delay: 0
    obstacleType: {fileID: 11400000, guid: aa094fbe005d647c5a079ae729e3bf02, type: 2}
  - positionOnPath: 0.6013102
    rotationOffset: {x: 0, y: 0, z: 225}
    positionOffset: {x: 0, y: 0}
    speed: 1
    delay: 0
    obstacleType: {fileID: 11400000, guid: 234677ccffe43a84ba49fe4d9365f767, type: 2}
  - positionOnPath: 0.6289109
    rotationOffset: {x: 0, y: 0, z: 270}
    positionOffset: {x: 0, y: 0}
    speed: 0
    delay: 0
    obstacleType: {fileID: 11400000, guid: 5616420dea0420644a1dc3be1e311682, type: 2}
  - positionOnPath: 0.65683174
    rotationOffset: {x: 0, y: 0, z: 135}
    positionOffset: {x: 0, y: 0}
    speed: 1
    delay: 0
    obstacleType: {fileID: 11400000, guid: 3f629b4f3adaebc468e17e818231b20a, type: 2}
  - positionOnPath: 0.689206
    rotationOffset: {x: 0, y: 0, z: 270}
    positionOffset: {x: 0, y: 0}
    speed: 1
    delay: 0
    obstacleType: {fileID: 11400000, guid: 234677ccffe43a84ba49fe4d9365f767, type: 2}
  - positionOnPath: 0.71250135
    rotationOffset: {x: 0, y: 0, z: 270}
    positionOffset: {x: 0, y: 0}
    speed: 0
    delay: 0
    obstacleType: {fileID: 11400000, guid: aa094fbe005d647c5a079ae729e3bf02, type: 2}
  - positionOnPath: 0.7474571
    rotationOffset: {x: 0, y: 0, z: 45}
    positionOffset: {x: 0, y: 0}
    speed: 1
    delay: 0
    obstacleType: {fileID: 11400000, guid: 3f629b4f3adaebc468e17e818231b20a, type: 2}
  - positionOnPath: 0.77607346
    rotationOffset: {x: 0, y: 0, z: 45}
    positionOffset: {x: 0, y: 0}
    speed: 0
    delay: 0
    obstacleType: {fileID: 11400000, guid: 5616420dea0420644a1dc3be1e311682, type: 2}
  - positionOnPath: 0.7966375
    rotationOffset: {x: 0, y: 0, z: 135}
    positionOffset: {x: 0, y: 0}
    speed: 1
    delay: 0
    obstacleType: {fileID: 11400000, guid: 5d885db2816ccb74889006499d79ac95, type: 2}
  - positionOnPath: 0.82666194
    rotationOffset: {x: 0, y: 0, z: 135}
    positionOffset: {x: 0, y: 0}
    speed: 0
    delay: 0
    obstacleType: {fileID: 11400000, guid: 16a77b6d21efc114996054dd6a3a53ac, type: 2}
  - positionOnPath: 0.8516394
    rotationOffset: {x: 0, y: 0, z: 135}
    positionOffset: {x: 0, y: 0}
    speed: 0
    delay: 0
    obstacleType: {fileID: 11400000, guid: 405e95598de27d74a843ab613d0aac51, type: 2}
  - positionOnPath: 0.874587
    rotationOffset: {x: 0, y: 0, z: 135}
    positionOffset: {x: 0, y: 0}
    speed: 1
    delay: 0.2
    obstacleType: {fileID: 11400000, guid: f2337e4f2d843e443b2b805695aab6ed, type: 2}
  - positionOnPath: 0.90884984
    rotationOffset: {x: 0, y: 0, z: 225}
    positionOffset: {x: 0, y: 0}
    speed: 0
    delay: 0
    obstacleType: {fileID: 11400000, guid: 5616420dea0420644a1dc3be1e311682, type: 2}
  - positionOnPath: 0.93978864
    rotationOffset: {x: 0, y: 0, z: 225}
    positionOffset: {x: 0, y: 0}
    speed: 0
    delay: 0
    obstacleType: {fileID: 11400000, guid: 405e95598de27d74a843ab613d0aac51, type: 2}
  - positionOnPath: 0.9639876
    rotationOffset: {x: 0, y: 0, z: 315}
    positionOffset: {x: 0, y: 0}
    speed: 1
    delay: 0
    obstacleType: {fileID: 11400000, guid: 234677ccffe43a84ba49fe4d9365f767, type: 2}
  outsideObstaclesData:
  - positionOnPath: 0.026248591
    rotationOffset: {x: 0, y: 0, z: 270}
    positionOffset: {x: 0, y: 0}
    speed: 0
    delay: 0
    obstacleType: {fileID: 11400000, guid: b877eb5ec629fa34da49a0e126ea8469, type: 2}
  - positionOnPath: 0.05785757
    rotationOffset: {x: 0, y: 0, z: 45}
    positionOffset: {x: 0, y: 0}
    speed: 1
    delay: 0
    obstacleType: {fileID: 11400000, guid: cfe5b8fd631fc8b4bba660932dc1761b, type: 2}
  - positionOnPath: 0.08305216
    rotationOffset: {x: 0, y: 0, z: 0}
    positionOffset: {x: 0, y: 0}
    speed: 0
    delay: 0
    obstacleType: {fileID: 11400000, guid: 750dc2d22081ec4419ebaddaca063e65, type: 2}
  - positionOnPath: 0.11062141
    rotationOffset: {x: 0, y: 0, z: 135}
    positionOffset: {x: 0, y: 0}
    speed: 0
    delay: 0
    obstacleType: {fileID: 11400000, guid: 148cf7450a4f0584aad5f7d2d85e953a, type: 2}
  - positionOnPath: 0.14343055
    rotationOffset: {x: 0, y: 0, z: 315}
    positionOffset: {x: 0, y: 0}
    speed: 1
    delay: 0
    obstacleType: {fileID: 11400000, guid: 604269e9238561b4eb5872e6b86ead91, type: 2}
  - positionOnPath: 0.17090093
    rotationOffset: {x: 0, y: 0, z: 0}
    positionOffset: {x: 0, y: 0}
    speed: 1
    delay: 0
    obstacleType: {fileID: 11400000, guid: 3bf1b645921bce94f88752b82bfbf93c, type: 2}
  - positionOnPath: 0.20474502
    rotationOffset: {x: 0, y: 0, z: 135}
    positionOffset: {x: 0, y: 0}
    speed: 0
    delay: 0
    obstacleType: {fileID: 11400000, guid: ee2d408287ce11a418e8a868a4014320, type: 2}
  - positionOnPath: 0.23691465
    rotationOffset: {x: 0, y: 0, z: 225}
    positionOffset: {x: 0, y: 0}
    speed: 1
    delay: 0
    obstacleType: {fileID: 11400000, guid: 3bf1b645921bce94f88752b82bfbf93c, type: 2}
  - positionOnPath: 0.2594867
    rotationOffset: {x: 0, y: 0, z: 225}
    positionOffset: {x: 0, y: 0}
    speed: 1
    delay: 0
    obstacleType: {fileID: 11400000, guid: cfe5b8fd631fc8b4bba660932dc1761b, type: 2}
  - positionOnPath: 0.29833335
    rotationOffset: {x: 0, y: 0, z: 135}
    positionOffset: {x: 0, y: 0}
    speed: 0
    delay: 0
    obstacleType: {fileID: 11400000, guid: 750dc2d22081ec4419ebaddaca063e65, type: 2}
  - positionOnPath: 0.32667905
    rotationOffset: {x: 0, y: 0, z: 225}
    positionOffset: {x: 0, y: 0}
    speed: 1
    delay: 0
    obstacleType: {fileID: 11400000, guid: 604269e9238561b4eb5872e6b86ead91, type: 2}
  - positionOnPath: 0.3447733
    rotationOffset: {x: 0, y: 0, z: 225}
    positionOffset: {x: 0, y: 0}
    speed: 0
    delay: 0
    obstacleType: {fileID: 11400000, guid: b877eb5ec629fa34da49a0e126ea8469, type: 2}
  - positionOnPath: 0.3717853
    rotationOffset: {x: 0, y: 0, z: 0}
    positionOffset: {x: 0, y: 0}
    speed: 0
    delay: 0
    obstacleType: {fileID: 11400000, guid: 148cf7450a4f0584aad5f7d2d85e953a, type: 2}
  - positionOnPath: 0.4101552
    rotationOffset: {x: 0, y: 0, z: 180}
    positionOffset: {x: 0, y: 0}
    speed: 0
    delay: 0
    obstacleType: {fileID: 11400000, guid: ee2d408287ce11a418e8a868a4014320, type: 2}
  - positionOnPath: 0.44274175
    rotationOffset: {x: 0, y: 0, z: 135}
    positionOffset: {x: 0, y: 0}
    speed: 1
    delay: 0
    obstacleType: {fileID: 11400000, guid: cfe5b8fd631fc8b4bba660932dc1761b, type: 2}
  - positionOnPath: 0.46252307
    rotationOffset: {x: 0, y: 0, z: 135}
    positionOffset: {x: 0, y: 0}
    speed: 0
    delay: 0
    obstacleType: {fileID: 11400000, guid: b877eb5ec629fa34da49a0e126ea8469, type: 2}
  - positionOnPath: 0.4879027
    rotationOffset: {x: 0, y: 0, z: 90}
    positionOffset: {x: 0, y: 0}
    speed: 0
    delay: 0
    obstacleType: {fileID: 11400000, guid: 148cf7450a4f0584aad5f7d2d85e953a, type: 2}
  - positionOnPath: 0.5164988
    rotationOffset: {x: 0, y: 0, z: 135}
    positionOffset: {x: 0, y: 0}
    speed: 0
    delay: 0
    obstacleType: {fileID: 11400000, guid: 750dc2d22081ec4419ebaddaca063e65, type: 2}
  - positionOnPath: 0.53640103
    rotationOffset: {x: 0, y: 0, z: 0}
    positionOffset: {x: 0, y: 0}
    speed: 1
    delay: 0
    obstacleType: {fileID: 11400000, guid: 604269e9238561b4eb5872e6b86ead91, type: 2}
  - positionOnPath: 0.5728845
    rotationOffset: {x: 0, y: 0, z: 315}
    positionOffset: {x: 0, y: 0}
    speed: 1
    delay: 0
    obstacleType: {fileID: 11400000, guid: 3bf1b645921bce94f88752b82bfbf93c, type: 2}
  - positionOnPath: 0.59241873
    rotationOffset: {x: 0, y: 0, z: 0}
    positionOffset: {x: 0, y: 0}
    speed: 0
    delay: 0
    obstacleType: {fileID: 11400000, guid: ee2d408287ce11a418e8a868a4014320, type: 2}
  - positionOnPath: 0.62213504
    rotationOffset: {x: 0, y: 0, z: 0}
    positionOffset: {x: 0, y: 0}
    speed: 0
    delay: 0
    obstacleType: {fileID: 11400000, guid: b877eb5ec629fa34da49a0e126ea8469, type: 2}
  - positionOnPath: 0.6449994
    rotationOffset: {x: 0, y: 0, z: 45}
    positionOffset: {x: 0, y: 0}
    speed: 0
    delay: 0
    obstacleType: {fileID: 11400000, guid: ee2d408287ce11a418e8a868a4014320, type: 2}
  - positionOnPath: 0.6772923
    rotationOffset: {x: 0, y: 0, z: 315}
    positionOffset: {x: 0, y: 0}
    speed: 1
    delay: 0
    obstacleType: {fileID: 11400000, guid: cfe5b8fd631fc8b4bba660932dc1761b, type: 2}
  - positionOnPath: 0.6996736
    rotationOffset: {x: 0, y: 0, z: 90}
    positionOffset: {x: 0, y: 0}
    speed: 1
    delay: 0
    obstacleType: {fileID: 11400000, guid: 3bf1b645921bce94f88752b82bfbf93c, type: 2}
  - positionOnPath: 0.73153496
    rotationOffset: {x: 0, y: 0, z: 0}
    positionOffset: {x: 0, y: 0}
    speed: 0
    delay: 0
    obstacleType: {fileID: 11400000, guid: 148cf7450a4f0584aad5f7d2d85e953a, type: 2}
  - positionOnPath: 0.7565851
    rotationOffset: {x: 0, y: 0, z: 135}
    positionOffset: {x: 0, y: 0}
    speed: 0
    delay: 0
    obstacleType: {fileID: 11400000, guid: 750dc2d22081ec4419ebaddaca063e65, type: 2}
  - positionOnPath: 0.7833099
    rotationOffset: {x: 0, y: 0, z: 0}
    positionOffset: {x: 0, y: 0}
    speed: 1
    delay: 0
    obstacleType: {fileID: 11400000, guid: 604269e9238561b4eb5872e6b86ead91, type: 2}
  - positionOnPath: 0.81441694
    rotationOffset: {x: 0, y: 0, z: 135}
    positionOffset: {x: 0, y: 0}
    speed: 1
    delay: 0
    obstacleType: {fileID: 11400000, guid: 604269e9238561b4eb5872e6b86ead91, type: 2}
  - positionOnPath: 0.83319473
    rotationOffset: {x: 0, y: 0, z: 180}
    positionOffset: {x: 0, y: 0}
    speed: 1
    delay: 0
    obstacleType: {fileID: 11400000, guid: 3bf1b645921bce94f88752b82bfbf93c, type: 2}
  - positionOnPath: 0.8586373
    rotationOffset: {x: 0, y: 0, z: 0}
    positionOffset: {x: 0, y: 0}
    speed: 0
    delay: 0
    obstacleType: {fileID: 11400000, guid: 148cf7450a4f0584aad5f7d2d85e953a, type: 2}
  - positionOnPath: 0.88149464
    rotationOffset: {x: 0, y: 0, z: 0}
    positionOffset: {x: 0, y: 0}
    speed: 0
    delay: 0
    obstacleType: {fileID: 11400000, guid: b877eb5ec629fa34da49a0e126ea8469, type: 2}
  - positionOnPath: 0.90532947
    rotationOffset: {x: 0, y: 0, z: 270}
    positionOffset: {x: 0, y: 0}
    speed: 1
    delay: 0
    obstacleType: {fileID: 11400000, guid: cfe5b8fd631fc8b4bba660932dc1761b, type: 2}
  - positionOnPath: 0.92790264
    rotationOffset: {x: 0, y: 0, z: 315}
    positionOffset: {x: 0, y: 0}
    speed: 0
    delay: 0
    obstacleType: {fileID: 11400000, guid: 750dc2d22081ec4419ebaddaca063e65, type: 2}
  - positionOnPath: 0.94715416
    rotationOffset: {x: 0, y: 0, z: 270}
    positionOffset: {x: 0, y: 0}
    speed: 0
    delay: 0
    obstacleType: {fileID: 11400000, guid: ee2d408287ce11a418e8a868a4014320, type: 2}
  - positionOnPath: 0.97286665
    rotationOffset: {x: 0, y: 0, z: 315}
    positionOffset: {x: 0, y: 0}
    speed: 0
    delay: 0
    obstacleType: {fileID: 11400000, guid: 750dc2d22081ec4419ebaddaca063e65, type: 2}
