%YAML 1.1
%TAG !u! tag:unity3d.com,2011:
--- !u!114 &11400000
MonoBehaviour:
  m_ObjectHideFlags: 0
  m_CorrespondingSourceObject: {fileID: 0}
  m_PrefabInstance: {fileID: 0}
  m_PrefabAsset: {fileID: 0}
  m_GameObject: {fileID: 0}
  m_Enabled: 1
  m_EditorHideFlags: 0
  m_Script: {fileID: 11500000, guid: 8b7b0ee2e7a4de24e80a1eb21b48dc89, type: 3}
  m_Name: Level_24
  m_EditorClassIdentifier: 
  id: b7a057d3cc1ce4b28967f0ac6dd88887
  tubePoints:
  - _type: 0
    position: {x: 0, y: 0, z: 0}
    color: {r: 0, g: 0, b: 0, a: 0}
    normal: {x: 0, y: 1, z: 0}
    size: 1
    tangent: {x: 0, y: 0, z: 0}
    tangent2: {x: 0, y: 0, z: 0}
  - _type: 0
    position: {x: 50, y: -1, z: -1}
    color: {r: 0, g: 0, b: 0, a: 0}
    normal: {x: 0, y: 1, z: 0}
    size: 1
    tangent: {x: 0, y: 0, z: 0}
    tangent2: {x: 0, y: 0, z: 0}
  - _type: 0
    position: {x: 100, y: 11, z: 11}
    color: {r: 0, g: 0, b: 0, a: 0}
    normal: {x: 0, y: 1, z: 0}
    size: 1
    tangent: {x: 0, y: 0, z: 0}
    tangent2: {x: 0, y: 0, z: 0}
  - _type: 0
    position: {x: 150, y: 6, z: 6}
    color: {r: 0, g: 0, b: 0, a: 0}
    normal: {x: 0, y: 1, z: 0}
    size: 1
    tangent: {x: 0, y: 0, z: 0}
    tangent2: {x: 0, y: 0, z: 0}
  - _type: 0
    position: {x: 200, y: -15, z: -15}
    color: {r: 0, g: 0, b: 0, a: 0}
    normal: {x: 0, y: 1, z: 0}
    size: 1
    tangent: {x: 0, y: 0, z: 0}
    tangent2: {x: 0, y: 0, z: 0}
  - _type: 0
    position: {x: 250, y: -35, z: -35}
    color: {r: 0, g: 0, b: 0, a: 0}
    normal: {x: 0, y: 1, z: 0}
    size: 1
    tangent: {x: 0, y: 0, z: 0}
    tangent2: {x: 0, y: 0, z: 0}
  - _type: 0
    position: {x: 300, y: -47, z: -47}
    color: {r: 0, g: 0, b: 0, a: 0}
    normal: {x: 0, y: 1, z: 0}
    size: 1
    tangent: {x: 0, y: 0, z: 0}
    tangent2: {x: 0, y: 0, z: 0}
  - _type: 0
    position: {x: 350, y: -66, z: -66}
    color: {r: 0, g: 0, b: 0, a: 0}
    normal: {x: 0, y: 1, z: 0}
    size: 1
    tangent: {x: 0, y: 0, z: 0}
    tangent2: {x: 0, y: 0, z: 0}
  - _type: 0
    position: {x: 400, y: -58, z: -58}
    color: {r: 0, g: 0, b: 0, a: 0}
    normal: {x: 0, y: 1, z: 0}
    size: 1
    tangent: {x: 0, y: 0, z: 0}
    tangent2: {x: 0, y: 0, z: 0}
  - _type: 0
    position: {x: 450, y: -48, z: -48}
    color: {r: 0, g: 0, b: 0, a: 0}
    normal: {x: 0, y: 1, z: 0}
    size: 1
    tangent: {x: 0, y: 0, z: 0}
    tangent2: {x: 0, y: 0, z: 0}
  - _type: 0
    position: {x: 500, y: -53, z: -53}
    color: {r: 0, g: 0, b: 0, a: 0}
    normal: {x: 0, y: 1, z: 0}
    size: 1
    tangent: {x: 0, y: 0, z: 0}
    tangent2: {x: 0, y: 0, z: 0}
  - _type: 0
    position: {x: 550, y: -47, z: -47}
    color: {r: 0, g: 0, b: 0, a: 0}
    normal: {x: 0, y: 1, z: 0}
    size: 1
    tangent: {x: 0, y: 0, z: 0}
    tangent2: {x: 0, y: 0, z: 0}
  - _type: 0
    position: {x: 600, y: -47, z: -47}
    color: {r: 0, g: 0, b: 0, a: 0}
    normal: {x: 0, y: 1, z: 0}
    size: 1
    tangent: {x: 0, y: 0, z: 0}
    tangent2: {x: 0, y: 0, z: 0}
  - _type: 0
    position: {x: 650, y: -55, z: -55}
    color: {r: 0, g: 0, b: 0, a: 0}
    normal: {x: 0, y: 1, z: 0}
    size: 1
    tangent: {x: 0, y: 0, z: 0}
    tangent2: {x: 0, y: 0, z: 0}
  - _type: 0
    position: {x: 700, y: -43, z: -43}
    color: {r: 0, g: 0, b: 0, a: 0}
    normal: {x: 0, y: 1, z: 0}
    size: 1
    tangent: {x: 0, y: 0, z: 0}
    tangent2: {x: 0, y: 0, z: 0}
  - _type: 0
    position: {x: 750, y: -25, z: -25}
    color: {r: 0, g: 0, b: 0, a: 0}
    normal: {x: 0, y: 1, z: 0}
    size: 1
    tangent: {x: 0, y: 0, z: 0}
    tangent2: {x: 0, y: 0, z: 0}
  - _type: 0
    position: {x: 800, y: -3, z: -3}
    color: {r: 0, g: 0, b: 0, a: 0}
    normal: {x: 0, y: 1, z: 0}
    size: 1
    tangent: {x: 0, y: 0, z: 0}
    tangent2: {x: 0, y: 0, z: 0}
  - _type: 0
    position: {x: 850, y: 5, z: 5}
    color: {r: 0, g: 0, b: 0, a: 0}
    normal: {x: 0, y: 1, z: 0}
    size: 1
    tangent: {x: 0, y: 0, z: 0}
    tangent2: {x: 0, y: 0, z: 0}
  - _type: 0
    position: {x: 900, y: 23, z: 23}
    color: {r: 0, g: 0, b: 0, a: 0}
    normal: {x: 0, y: 1, z: 0}
    size: 1
    tangent: {x: 0, y: 0, z: 0}
    tangent2: {x: 0, y: 0, z: 0}
  - _type: 0
    position: {x: 950, y: 8, z: 8}
    color: {r: 0, g: 0, b: 0, a: 0}
    normal: {x: 0, y: 1, z: 0}
    size: 1
    tangent: {x: 0, y: 0, z: 0}
    tangent2: {x: 0, y: 0, z: 0}
  tubeTexture: {fileID: 2800000, guid: 2797d2850c75e91499e3c9eb76e3b43c, type: 3}
  tubeMaterial: {fileID: 2100000, guid: 29930e25242ac4b73ad74e7cca4f5d9c, type: 2}
  tubeAndObstacleInsideLightColor: {r: 0.5226469, g: 0.26352793, b: 0.8867924, a: 1}
  tubeAndObstacleOutsideLightColor: {r: 0.19339621, g: 0.3106351, b: 1, a: 1}
  obstacleMaterial: {fileID: 2100000, guid: 48787c1fae6464ee38aeb468bc894a8c, type: 2}
  insideObstaclesData:
  - positionOnPath: 0.031492338
    rotationOffset: {x: 0, y: 0, z: 225}
    positionOffset: {x: 0, y: 0}
    speed: 1
    delay: 0
    obstacleType: {fileID: 11400000, guid: 3f629b4f3adaebc468e17e818231b20a, type: 2}
  - positionOnPath: 0.052493908
    rotationOffset: {x: 0, y: 0, z: 45}
    positionOffset: {x: 0, y: 0}
    speed: 1
    delay: 0
    obstacleType: {fileID: 11400000, guid: 5d885db2816ccb74889006499d79ac95, type: 2}
  - positionOnPath: 0.07920779
    rotationOffset: {x: 0, y: 0, z: 270}
    positionOffset: {x: 0, y: 0}
    speed: 0
    delay: 0
    obstacleType: {fileID: 11400000, guid: 16a77b6d21efc114996054dd6a3a53ac, type: 2}
  - positionOnPath: 0.10512333
    rotationOffset: {x: 0, y: 0, z: 0}
    positionOffset: {x: 0, y: 0}
    speed: 0
    delay: 0
    obstacleType: {fileID: 11400000, guid: 405e95598de27d74a843ab613d0aac51, type: 2}
  - positionOnPath: 0.13032466
    rotationOffset: {x: 0, y: 0, z: 90}
    positionOffset: {x: 0, y: 0}
    speed: 1
    delay: 0.2
    obstacleType: {fileID: 11400000, guid: f2337e4f2d843e443b2b805695aab6ed, type: 2}
  - positionOnPath: 0.1636569
    rotationOffset: {x: 0, y: 0, z: 270}
    positionOffset: {x: 0, y: 0}
    speed: 1
    delay: 0.2
    obstacleType: {fileID: 11400000, guid: f2337e4f2d843e443b2b805695aab6ed, type: 2}
  - positionOnPath: 0.19161713
    rotationOffset: {x: 0, y: 0, z: 45}
    positionOffset: {x: 0, y: 0}
    speed: 1
    delay: 0
    obstacleType: {fileID: 11400000, guid: 5d885db2816ccb74889006499d79ac95, type: 2}
  - positionOnPath: 0.21657419
    rotationOffset: {x: 0, y: 0, z: 135}
    positionOffset: {x: 0, y: 0}
    speed: 0
    delay: 0
    obstacleType: {fileID: 11400000, guid: 16a77b6d21efc114996054dd6a3a53ac, type: 2}
  - positionOnPath: 0.23733446
    rotationOffset: {x: 0, y: 0, z: 270}
    positionOffset: {x: 0, y: 0}
    speed: 0
    delay: 0
    obstacleType: {fileID: 11400000, guid: 405e95598de27d74a843ab613d0aac51, type: 2}
  - positionOnPath: 0.2576306
    rotationOffset: {x: 0, y: 0, z: 315}
    positionOffset: {x: 0, y: 0}
    speed: 1
    delay: 0
    obstacleType: {fileID: 11400000, guid: 3f629b4f3adaebc468e17e818231b20a, type: 2}
  - positionOnPath: 0.28920507
    rotationOffset: {x: 0, y: 0, z: 225}
    positionOffset: {x: 0, y: 0}
    speed: 0
    delay: 0
    obstacleType: {fileID: 11400000, guid: 16a77b6d21efc114996054dd6a3a53ac, type: 2}
  - positionOnPath: 0.3132114
    rotationOffset: {x: 0, y: 0, z: 90}
    positionOffset: {x: 0, y: 0}
    speed: 0
    delay: 0
    obstacleType: {fileID: 11400000, guid: 405e95598de27d74a843ab613d0aac51, type: 2}
  - positionOnPath: 0.33601427
    rotationOffset: {x: 0, y: 0, z: 0}
    positionOffset: {x: 0, y: 0}
    speed: 1
    delay: 0
    obstacleType: {fileID: 11400000, guid: 5d885db2816ccb74889006499d79ac95, type: 2}
  - positionOnPath: 0.35479975
    rotationOffset: {x: 0, y: 0, z: 225}
    positionOffset: {x: 0, y: 0}
    speed: 1
    delay: 0.2
    obstacleType: {fileID: 11400000, guid: f2337e4f2d843e443b2b805695aab6ed, type: 2}
  - positionOnPath: 0.38541254
    rotationOffset: {x: 0, y: 0, z: 90}
    positionOffset: {x: 0, y: 0}
    speed: 1
    delay: 0
    obstacleType: {fileID: 11400000, guid: 3f629b4f3adaebc468e17e818231b20a, type: 2}
  - positionOnPath: 0.4185153
    rotationOffset: {x: 0, y: 0, z: 225}
    positionOffset: {x: 0, y: 0}
    speed: 1
    delay: 0
    obstacleType: {fileID: 11400000, guid: 3f629b4f3adaebc468e17e818231b20a, type: 2}
  - positionOnPath: 0.4535459
    rotationOffset: {x: 0, y: 0, z: 180}
    positionOffset: {x: 0, y: 0}
    speed: 1
    delay: 0.2
    obstacleType: {fileID: 11400000, guid: f2337e4f2d843e443b2b805695aab6ed, type: 2}
  - positionOnPath: 0.4929227
    rotationOffset: {x: 0, y: 0, z: 135}
    positionOffset: {x: 0, y: 0}
    speed: 1
    delay: 0
    obstacleType: {fileID: 11400000, guid: 5d885db2816ccb74889006499d79ac95, type: 2}
  - positionOnPath: 0.51974106
    rotationOffset: {x: 0, y: 0, z: 315}
    positionOffset: {x: 0, y: 0}
    speed: 0
    delay: 0
    obstacleType: {fileID: 11400000, guid: 16a77b6d21efc114996054dd6a3a53ac, type: 2}
  - positionOnPath: 0.5448256
    rotationOffset: {x: 0, y: 0, z: 180}
    positionOffset: {x: 0, y: 0}
    speed: 0
    delay: 0
    obstacleType: {fileID: 11400000, guid: 405e95598de27d74a843ab613d0aac51, type: 2}
  - positionOnPath: 0.56537586
    rotationOffset: {x: 0, y: 0, z: 0}
    positionOffset: {x: 0, y: 0}
    speed: 1
    delay: 0.2
    obstacleType: {fileID: 11400000, guid: f2337e4f2d843e443b2b805695aab6ed, type: 2}
  - positionOnPath: 0.5999093
    rotationOffset: {x: 0, y: 0, z: 135}
    positionOffset: {x: 0, y: 0}
    speed: 0
    delay: 0
    obstacleType: {fileID: 11400000, guid: 405e95598de27d74a843ab613d0aac51, type: 2}
  - positionOnPath: 0.6376684
    rotationOffset: {x: 0, y: 0, z: 315}
    positionOffset: {x: 0, y: 0}
    speed: 0
    delay: 0
    obstacleType: {fileID: 11400000, guid: 16a77b6d21efc114996054dd6a3a53ac, type: 2}
  - positionOnPath: 0.65983146
    rotationOffset: {x: 0, y: 0, z: 315}
    positionOffset: {x: 0, y: 0}
    speed: 1
    delay: 0
    obstacleType: {fileID: 11400000, guid: 3f629b4f3adaebc468e17e818231b20a, type: 2}
  - positionOnPath: 0.69293195
    rotationOffset: {x: 0, y: 0, z: 90}
    positionOffset: {x: 0, y: 0}
    speed: 1
    delay: 0
    obstacleType: {fileID: 11400000, guid: 5d885db2816ccb74889006499d79ac95, type: 2}
  - positionOnPath: 0.72938704
    rotationOffset: {x: 0, y: 0, z: 0}
    positionOffset: {x: 0, y: 0}
    speed: 1
    delay: 0
    obstacleType: {fileID: 11400000, guid: 5d885db2816ccb74889006499d79ac95, type: 2}
  - positionOnPath: 0.7543226
    rotationOffset: {x: 0, y: 0, z: 225}
    positionOffset: {x: 0, y: 0}
    speed: 0
    delay: 0
    obstacleType: {fileID: 11400000, guid: 405e95598de27d74a843ab613d0aac51, type: 2}
  - positionOnPath: 0.78776455
    rotationOffset: {x: 0, y: 0, z: 45}
    positionOffset: {x: 0, y: 0}
    speed: 1
    delay: 0
    obstacleType: {fileID: 11400000, guid: 3f629b4f3adaebc468e17e818231b20a, type: 2}
  - positionOnPath: 0.80556923
    rotationOffset: {x: 0, y: 0, z: 90}
    positionOffset: {x: 0, y: 0}
    speed: 1
    delay: 0.2
    obstacleType: {fileID: 11400000, guid: f2337e4f2d843e443b2b805695aab6ed, type: 2}
  - positionOnPath: 0.8256148
    rotationOffset: {x: 0, y: 0, z: 180}
    positionOffset: {x: 0, y: 0}
    speed: 0
    delay: 0
    obstacleType: {fileID: 11400000, guid: 16a77b6d21efc114996054dd6a3a53ac, type: 2}
  - positionOnPath: 0.8452085
    rotationOffset: {x: 0, y: 0, z: 135}
    positionOffset: {x: 0, y: 0}
    speed: 1
    delay: 0.2
    obstacleType: {fileID: 11400000, guid: f2337e4f2d843e443b2b805695aab6ed, type: 2}
  - positionOnPath: 0.881294
    rotationOffset: {x: 0, y: 0, z: 45}
    positionOffset: {x: 0, y: 0}
    speed: 1
    delay: 0
    obstacleType: {fileID: 11400000, guid: 3f629b4f3adaebc468e17e818231b20a, type: 2}
  - positionOnPath: 0.9093768
    rotationOffset: {x: 0, y: 0, z: 45}
    positionOffset: {x: 0, y: 0}
    speed: 0
    delay: 0
    obstacleType: {fileID: 11400000, guid: 405e95598de27d74a843ab613d0aac51, type: 2}
  - positionOnPath: 0.9287901
    rotationOffset: {x: 0, y: 0, z: 180}
    positionOffset: {x: 0, y: 0}
    speed: 0
    delay: 0
    obstacleType: {fileID: 11400000, guid: 16a77b6d21efc114996054dd6a3a53ac, type: 2}
  - positionOnPath: 0.95587766
    rotationOffset: {x: 0, y: 0, z: 315}
    positionOffset: {x: 0, y: 0}
    speed: 1
    delay: 0
    obstacleType: {fileID: 11400000, guid: 5d885db2816ccb74889006499d79ac95, type: 2}
  - positionOnPath: 0.97522455
    rotationOffset: {x: 0, y: 0, z: 315}
    positionOffset: {x: 0, y: 0}
    speed: 0
    delay: 0
    obstacleType: {fileID: 11400000, guid: 16a77b6d21efc114996054dd6a3a53ac, type: 2}
  - positionOnPath: 0.99544126
    rotationOffset: {x: 0, y: 0, z: 270}
    positionOffset: {x: 0, y: 0}
    speed: 0
    delay: 0
    obstacleType: {fileID: 11400000, guid: 405e95598de27d74a843ab613d0aac51, type: 2}
  outsideObstaclesData:
  - positionOnPath: 0.040962435
    rotationOffset: {x: 0, y: 0, z: 135}
    positionOffset: {x: 0, y: 0}
    speed: 0
    delay: 0
    obstacleType: {fileID: 11400000, guid: ee2d408287ce11a418e8a868a4014320, type: 2}
  - positionOnPath: 0.07053431
    rotationOffset: {x: 0, y: 0, z: 135}
    positionOffset: {x: 0, y: 0}
    speed: 1
    delay: 0
    obstacleType: {fileID: 11400000, guid: dce99673ce07a4d459d4a7581f383c77, type: 2}
  - positionOnPath: 0.09384804
    rotationOffset: {x: 0, y: 0, z: 45}
    positionOffset: {x: 0, y: 0}
    speed: 1
    delay: 0
    obstacleType: {fileID: 11400000, guid: dce99673ce07a4d459d4a7581f383c77, type: 2}
  - positionOnPath: 0.119841635
    rotationOffset: {x: 0, y: 0, z: 315}
    positionOffset: {x: 0, y: 0}
    speed: 0
    delay: 0
    obstacleType: {fileID: 11400000, guid: ee2d408287ce11a418e8a868a4014320, type: 2}
  - positionOnPath: 0.15285425
    rotationOffset: {x: 0, y: 0, z: 135}
    positionOffset: {x: 0, y: 0}
    speed: 1
    delay: 0
    obstacleType: {fileID: 11400000, guid: dce99673ce07a4d459d4a7581f383c77, type: 2}
  - positionOnPath: 0.18372326
    rotationOffset: {x: 0, y: 0, z: 180}
    positionOffset: {x: 0, y: 0}
    speed: 1
    delay: 0
    obstacleType: {fileID: 11400000, guid: 604269e9238561b4eb5872e6b86ead91, type: 2}
  - positionOnPath: 0.21747847
    rotationOffset: {x: 0, y: 0, z: 315}
    positionOffset: {x: 0, y: 0}
    speed: 0
    delay: 0
    obstacleType: {fileID: 11400000, guid: 148cf7450a4f0584aad5f7d2d85e953a, type: 2}
  - positionOnPath: 0.24646099
    rotationOffset: {x: 0, y: 0, z: 270}
    positionOffset: {x: 0, y: 0}
    speed: 0
    delay: 0
    obstacleType: {fileID: 11400000, guid: 750dc2d22081ec4419ebaddaca063e65, type: 2}
  - positionOnPath: 0.27212706
    rotationOffset: {x: 0, y: 0, z: 315}
    positionOffset: {x: 0, y: 0}
    speed: 1
    delay: 0
    obstacleType: {fileID: 11400000, guid: 604269e9238561b4eb5872e6b86ead91, type: 2}
  - positionOnPath: 0.3053209
    rotationOffset: {x: 0, y: 0, z: 90}
    positionOffset: {x: 0, y: 0}
    speed: 1
    delay: 0
    obstacleType: {fileID: 11400000, guid: 604269e9238561b4eb5872e6b86ead91, type: 2}
  - positionOnPath: 0.34038758
    rotationOffset: {x: 0, y: 0, z: 90}
    positionOffset: {x: 0, y: 0}
    speed: 0
    delay: 0
    obstacleType: {fileID: 11400000, guid: ee2d408287ce11a418e8a868a4014320, type: 2}
  - positionOnPath: 0.37286976
    rotationOffset: {x: 0, y: 0, z: 135}
    positionOffset: {x: 0, y: 0}
    speed: 1
    delay: 0
    obstacleType: {fileID: 11400000, guid: 3bf1b645921bce94f88752b82bfbf93c, type: 2}
  - positionOnPath: 0.39656863
    rotationOffset: {x: 0, y: 0, z: 225}
    positionOffset: {x: 0, y: 0}
    speed: 0
    delay: 0
    obstacleType: {fileID: 11400000, guid: 148cf7450a4f0584aad5f7d2d85e953a, type: 2}
  - positionOnPath: 0.42864096
    rotationOffset: {x: 0, y: 0, z: 315}
    positionOffset: {x: 0, y: 0}
    speed: 1
    delay: 0
    obstacleType: {fileID: 11400000, guid: dce99673ce07a4d459d4a7581f383c77, type: 2}
  - positionOnPath: 0.45053917
    rotationOffset: {x: 0, y: 0, z: 0}
    positionOffset: {x: 0, y: 0}
    speed: 0
    delay: 0
    obstacleType: {fileID: 11400000, guid: b877eb5ec629fa34da49a0e126ea8469, type: 2}
  - positionOnPath: 0.48982304
    rotationOffset: {x: 0, y: 0, z: 225}
    positionOffset: {x: 0, y: 0}
    speed: 0
    delay: 0
    obstacleType: {fileID: 11400000, guid: 750dc2d22081ec4419ebaddaca063e65, type: 2}
  - positionOnPath: 0.52499413
    rotationOffset: {x: 0, y: 0, z: 45}
    positionOffset: {x: 0, y: 0}
    speed: 1
    delay: 0
    obstacleType: {fileID: 11400000, guid: b85818dc12464ce48ad04847e9949039, type: 2}
  - positionOnPath: 0.5458568
    rotationOffset: {x: 0, y: 0, z: 225}
    positionOffset: {x: 0, y: 0}
    speed: 1
    delay: 0
    obstacleType: {fileID: 11400000, guid: cfe5b8fd631fc8b4bba660932dc1761b, type: 2}
  - positionOnPath: 0.56744087
    rotationOffset: {x: 0, y: 0, z: 270}
    positionOffset: {x: 0, y: 0}
    speed: 1
    delay: 0
    obstacleType: {fileID: 11400000, guid: cfe5b8fd631fc8b4bba660932dc1761b, type: 2}
  - positionOnPath: 0.59885734
    rotationOffset: {x: 0, y: 0, z: 180}
    positionOffset: {x: 0, y: 0}
    speed: 0
    delay: 0
    obstacleType: {fileID: 11400000, guid: ee2d408287ce11a418e8a868a4014320, type: 2}
  - positionOnPath: 0.62620306
    rotationOffset: {x: 0, y: 0, z: 225}
    positionOffset: {x: 0, y: 0}
    speed: 0
    delay: 0
    obstacleType: {fileID: 11400000, guid: 148cf7450a4f0584aad5f7d2d85e953a, type: 2}
  - positionOnPath: 0.6608358
    rotationOffset: {x: 0, y: 0, z: 270}
    positionOffset: {x: 0, y: 0}
    speed: 1
    delay: 0
    obstacleType: {fileID: 11400000, guid: 604269e9238561b4eb5872e6b86ead91, type: 2}
  - positionOnPath: 0.6970365
    rotationOffset: {x: 0, y: 0, z: 45}
    positionOffset: {x: 0, y: 0}
    speed: 0
    delay: 0
    obstacleType: {fileID: 11400000, guid: 750dc2d22081ec4419ebaddaca063e65, type: 2}
  - positionOnPath: 0.73420453
    rotationOffset: {x: 0, y: 0, z: 45}
    positionOffset: {x: 0, y: 0}
    speed: 1
    delay: 0
    obstacleType: {fileID: 11400000, guid: 604269e9238561b4eb5872e6b86ead91, type: 2}
  - positionOnPath: 0.7674532
    rotationOffset: {x: 0, y: 0, z: 0}
    positionOffset: {x: 0, y: 0}
    speed: 1
    delay: 0
    obstacleType: {fileID: 11400000, guid: b85818dc12464ce48ad04847e9949039, type: 2}
  - positionOnPath: 0.7932279
    rotationOffset: {x: 0, y: 0, z: 225}
    positionOffset: {x: 0, y: 0}
    speed: 0
    delay: 0
    obstacleType: {fileID: 11400000, guid: ee2d408287ce11a418e8a868a4014320, type: 2}
  - positionOnPath: 0.82119983
    rotationOffset: {x: 0, y: 0, z: 0}
    positionOffset: {x: 0, y: 0}
    speed: 0
    delay: 0
    obstacleType: {fileID: 11400000, guid: ee2d408287ce11a418e8a868a4014320, type: 2}
  - positionOnPath: 0.8573845
    rotationOffset: {x: 0, y: 0, z: 315}
    positionOffset: {x: 0, y: 0}
    speed: 0
    delay: 0
    obstacleType: {fileID: 11400000, guid: 750dc2d22081ec4419ebaddaca063e65, type: 2}
  - positionOnPath: 0.88438916
    rotationOffset: {x: 0, y: 0, z: 0}
    positionOffset: {x: 0, y: 0}
    speed: 1
    delay: 0
    obstacleType: {fileID: 11400000, guid: 3bf1b645921bce94f88752b82bfbf93c, type: 2}
  - positionOnPath: 0.913771
    rotationOffset: {x: 0, y: 0, z: 225}
    positionOffset: {x: 0, y: 0}
    speed: 0
    delay: 0
    obstacleType: {fileID: 11400000, guid: b877eb5ec629fa34da49a0e126ea8469, type: 2}
  - positionOnPath: 0.93828136
    rotationOffset: {x: 0, y: 0, z: 135}
    positionOffset: {x: 0, y: 0}
    speed: 1
    delay: 0
    obstacleType: {fileID: 11400000, guid: cfe5b8fd631fc8b4bba660932dc1761b, type: 2}
  - positionOnPath: 0.9599365
    rotationOffset: {x: 0, y: 0, z: 90}
    positionOffset: {x: 0, y: 0}
    speed: 1
    delay: 0
    obstacleType: {fileID: 11400000, guid: b85818dc12464ce48ad04847e9949039, type: 2}
  - positionOnPath: 0.9898519
    rotationOffset: {x: 0, y: 0, z: 45}
    positionOffset: {x: 0, y: 0}
    speed: 0
    delay: 0
    obstacleType: {fileID: 11400000, guid: ee2d408287ce11a418e8a868a4014320, type: 2}
