%YAML 1.1
%TAG !u! tag:unity3d.com,2011:
--- !u!181963792 &2655988077585873504
Preset:
  m_ObjectHideFlags: 0
  m_CorrespondingSourceObject: {fileID: 0}
  m_PrefabInstance: {fileID: 0}
  m_PrefabAsset: {fileID: 0}
  m_Name: UIParticle
  m_TargetType:
    m_NativeTypeID: 114
    m_ManagedTypePPtr: {fileID: 11500000, guid: 16f0b0b6d0b7542bfbd20a3e05b04ff1,
      type: 3}
    m_ManagedTypeFallback: 
  m_Properties:
  - target: {fileID: 0}
    propertyPath: m_Enabled
    value: 1
    objectReference: {fileID: 0}
  - target: {fileID: 0}
    propertyPath: m_EditorHideFlags
    value: 0
    objectReference: {fileID: 0}
  - target: {fileID: 0}
    propertyPath: m_EditorClassIdentifier
    value: 
    objectReference: {fileID: 0}
  - target: {fileID: 0}
    propertyPath: m_Material
    value: 
    objectReference: {fileID: 0}
  - target: {fileID: 0}
    propertyPath: m_Color.r
    value: 1
    objectReference: {fileID: 0}
  - target: {fileID: 0}
    propertyPath: m_Color.g
    value: 1
    objectReference: {fileID: 0}
  - target: {fileID: 0}
    propertyPath: m_Color.b
    value: 1
    objectReference: {fileID: 0}
  - target: {fileID: 0}
    propertyPath: m_Color.a
    value: 1
    objectReference: {fileID: 0}
  - target: {fileID: 0}
    propertyPath: m_RaycastTarget
    value: 1
    objectReference: {fileID: 0}
  - target: {fileID: 0}
    propertyPath: m_Maskable
    value: 1
    objectReference: {fileID: 0}
  - target: {fileID: 0}
    propertyPath: m_OnCullStateChanged.m_PersistentCalls.m_Calls.Array.size
    value: 0
    objectReference: {fileID: 0}
  - target: {fileID: 0}
    propertyPath: m_IsTrail
    value: 0
    objectReference: {fileID: 0}
  - target: {fileID: 0}
    propertyPath: m_IgnoreCanvasScaler
    value: 1
    objectReference: {fileID: 0}
  - target: {fileID: 0}
    propertyPath: m_Scale
    value: 10
    objectReference: {fileID: 0}
  - target: {fileID: 0}
    propertyPath: m_Scale3D.x
    value: 100
    objectReference: {fileID: 0}
  - target: {fileID: 0}
    propertyPath: m_Scale3D.y
    value: 100
    objectReference: {fileID: 0}
  - target: {fileID: 0}
    propertyPath: m_Scale3D.z
    value: 100
    objectReference: {fileID: 0}
  - target: {fileID: 0}
    propertyPath: m_AnimatableProperties.Array.size
    value: 0
    objectReference: {fileID: 0}
  - target: {fileID: 0}
    propertyPath: m_Particles.Array.size
    value: 0
    objectReference: {fileID: 0}
  - target: {fileID: 0}
    propertyPath: m_ShrinkByMaterial
    value: 0
    objectReference: {fileID: 0}
