%YAML 1.1
%TAG !u! tag:unity3d.com,2011:
--- !u!1001 &2597326333937499734
PrefabInstance:
  m_ObjectHideFlags: 0
  serializedVersion: 2
  m_Modification:
    m_TransformParent: {fileID: 0}
    m_Modifications:
    - target: {fileID: 178460, guid: a84cb58ef7faa67488076810242453b9, type: 3}
      propertyPath: m_Name
      value: SimpleLightningBoltAnimatedPrefab Variant 01
      objectReference: {fileID: 0}
    - target: {fileID: 430986, guid: a84cb58ef7faa67488076810242453b9, type: 3}
      propertyPath: m_LocalPosition.x
      value: 0
      objectReference: {fileID: 0}
    - target: {fileID: 430986, guid: a84cb58ef7faa67488076810242453b9, type: 3}
      propertyPath: m_LocalPosition.y
      value: 0
      objectReference: {fileID: 0}
    - target: {fileID: 430986, guid: a84cb58ef7faa67488076810242453b9, type: 3}
      propertyPath: m_LocalPosition.z
      value: 0
      objectReference: {fileID: 0}
    - target: {fileID: 430986, guid: a84cb58ef7faa67488076810242453b9, type: 3}
      propertyPath: m_LocalRotation.x
      value: 0
      objectReference: {fileID: 0}
    - target: {fileID: 430986, guid: a84cb58ef7faa67488076810242453b9, type: 3}
      propertyPath: m_LocalRotation.y
      value: 0
      objectReference: {fileID: 0}
    - target: {fileID: 430986, guid: a84cb58ef7faa67488076810242453b9, type: 3}
      propertyPath: m_LocalRotation.z
      value: 0
      objectReference: {fileID: 0}
    - target: {fileID: 430986, guid: a84cb58ef7faa67488076810242453b9, type: 3}
      propertyPath: m_LocalRotation.w
      value: 1
      objectReference: {fileID: 0}
    - target: {fileID: 430986, guid: a84cb58ef7faa67488076810242453b9, type: 3}
      propertyPath: m_RootOrder
      value: 0
      objectReference: {fileID: 0}
    - target: {fileID: 430986, guid: a84cb58ef7faa67488076810242453b9, type: 3}
      propertyPath: m_LocalEulerAnglesHint.x
      value: 0
      objectReference: {fileID: 0}
    - target: {fileID: 430986, guid: a84cb58ef7faa67488076810242453b9, type: 3}
      propertyPath: m_LocalEulerAnglesHint.y
      value: 0
      objectReference: {fileID: 0}
    - target: {fileID: 430986, guid: a84cb58ef7faa67488076810242453b9, type: 3}
      propertyPath: m_LocalEulerAnglesHint.z
      value: 0
      objectReference: {fileID: 0}
    - target: {fileID: 12080208, guid: a84cb58ef7faa67488076810242453b9, type: 3}
      propertyPath: m_Materials.Array.data[0]
      value: 
      objectReference: {fileID: 2100000, guid: 7e0b3170f116043fe89f740277f59f9d, type: 2}
    - target: {fileID: 456702, guid: a84cb58ef7faa67488076810242453b9, type: 3}
      propertyPath: m_LocalPosition.y
      value: -2
      objectReference: {fileID: 0}
    - target: {fileID: 435742, guid: a84cb58ef7faa67488076810242453b9, type: 3}
      propertyPath: m_LocalPosition.y
      value: -2
      objectReference: {fileID: 0}
    m_RemovedComponents: []
  m_SourcePrefab: {fileID: 100100000, guid: a84cb58ef7faa67488076810242453b9, type: 3}
