%YAML 1.1
%TAG !u! tag:unity3d.com,2011:
--- !u!114 &11400000
MonoBehaviour:
  m_ObjectHideFlags: 0
  m_CorrespondingSourceObject: {fileID: 0}
  m_PrefabInstance: {fileID: 0}
  m_PrefabAsset: {fileID: 0}
  m_GameObject: {fileID: 0}
  m_Enabled: 1
  m_EditorHideFlags: 0
  m_Script: {fileID: 11500000, guid: 80002ac9ec279db46af370b6f5e49dbc, type: 3}
  m_Name: UpdateMenu
  m_EditorClassIdentifier: 
  _showClip: {fileID: 8300000, guid: 122cb898bff4e4e8cb3fe1b9d8186dfa, type: 3}
  _hideClip: {fileID: 8300000, guid: c599b6a4f32f247beb9429f49dc3013c, type: 3}
